#Creator: Hydro 
 
crathanor_missions_slot_1 = { 
	slot = 1  
	generic = no 
	ai = yes  
	has_country_shield = yes 
	potential = {
		OR = {
			tag = U17
			AND = {
				tag = F52
				was_tag = U17
			}
		}
	}
 
	crathanor_no_representation = { 
		icon = mission_dual_diplomacy 
		position = 1 
 
		trigger = { 
			manpower_percentage = 0.50 
			prestige = 30 
			estate_loyalty = { 
				estate = estate_nobles 
				loyalty = 60 
			} 
			NOT = { 
				estate_influence = {  
					estate = estate_nobles 
					influence = 60 
				} 
			}
			NOT = {
				has_estate_privilege = estate_nobles_levies
			}
		} 
 
		effect = { 
			change_estate_land_share = {  
				estate = estate_nobles  
				share = -5 
			}
			add_estate_loyalty = { 
				estate = estate_nobles 
				loyalty = -25 
			} 
			change_estate_land_share = {  
				estate = estate_burghers  
				share = 5 
			} 
			define_advisor = { 
				type = treasurer 
				skill = 1 
				culture = ilatani 
				religion = regent_court 
				discount = yes 
			}	 
		} 
	} 
	 
	 
	crathanor_no_taxation = {  
		icon = mission_writing_book 
		position = 2 
		required_missions = { 
			crathanor_no_representation 
		} 
		 
		trigger = { 
			AND = { 
				any_known_country = { 
					religion = bulwari_sun_cult 
					has_opinion = {  
						who = ROOT  
						value = 100  
					} 
				} 
				any_known_country = { 
					religion = regent_court 
					has_opinion = {  
						who = ROOT  
						value = 100  
					} 
				} 
			}
			OR = {
				estate_loyalty = { 
					estate = estate_church 
					loyalty = 60 
				}
				has_estate_privilege = estate_church_administrative_privileges
			}
			NOT = { 
				estate_influence = {  
					estate = estate_church 
					influence = 60 
				} 
			}							 
		} 
	 
		effect = {  
			change_estate_land_share = {  
				estate = estate_church  
				share = -5 
			}
			add_estate_loyalty = { 
				estate = estate_church 
				loyalty = -25 
			} 
			change_estate_land_share = {  
				estate = estate_burghers  
				share = 5 
			} 
			519 = { 
				add_building = temple	 
			} 
		} 
	} 
	 
	crathanor_embrace_the_two_principles = { 
		icon = mission_monarch_diplomacy  
		position = 3 
		required_missions = { 
			crathanor_no_taxation  
		} 
		 
		trigger = {  
			government_reform_progress = 100 
			has_estate_privilege = estate_burghers_land_of_commerce 
			has_estate_privilege = estate_burghers_free_enterprise 
			estate_loyalty = { 
				estate = estate_burghers 
				loyalty = 70 
			} 
			estate_influence = { 
				estate = estate_burghers 
				influence = 70 
			} 
		} 
		 
		effect = { 
			country_event = { id = flavor_crathanor.1 }	 
		} 
	} 
 
	crathanor_the_constitution_of_crathanor = { 
		icon = mission_diplomacy_missive 
		position = 5 
		required_missions = { 
			crathanor_embrace_the_two_principles 
		} 
		 
		trigger = { 
			OR = {  
				dip = 5 
				statesman = 3 
			}
			OR = {
				estate_loyalty = { 
					estate = estate_church 
					loyalty = 50 
				}
				has_reform = separate_clergy_from_state_affairs_reform
			}
			OR = {
				estate_loyalty = { 
					estate = estate_nobles 
					loyalty = 50 
				}
				has_parliament = yes
			}
			estate_loyalty = { 
				estate = estate_burghers 
				loyalty = 50 
			}
			republican_tradition = 90 
			mercantilism = 50 
		} 
		 
		effect = {  
			country_event = {id = flavor_crathanor.2 } 
		} 
	} 
	 
	crathanor_our_old_elephantine_friends = { 
		icon = mission_elephant_herd 
		position = 6 
		required_missions = { 
			crathanor_ending_devastation
		} 
		
		provinces_to_highlight = {
			AND = {
				region = bahar_region
				has_terrain = woods
				base_production = 5
				OR = { 
					has_production_building_trigger = yes
					trade_goods = gold
				}
				NOT = {
					country_or_non_sovereign_subject_holds = ROOT
				}
			}
		}
		
        trigger = {
			custom_trigger_tooltip = {
				tooltip = crathanor_elephante_tt
			}
			num_of_owned_provinces_with = { 
				value = 5 
				region = bahar_region 
				has_terrain = woods 
				base_production = 5 
				OR = { 
					has_production_building_trigger = yes 
					trade_goods = gold 
				} 
			} 
		} 
		 
		effect = {
			if = { 
				limit = { 
					bahar_region = { 
						type = all 
						OR = { 
							AND = { 
								owned_by = ROOT 
								base_production = 5 
								OR = {	 
									has_production_building_trigger = yes 
									trade_goods = gold 
								} 
							} 
							NOT = { has_terrain = woods } 
						} 
					} 
				} 
				add_country_modifier = { 
					name = crathanor_bahari_war_elephants_max_modifier 
					duration = -1 
				} 
				else = { 
					add_country_modifier = { 
						name = crathanor_bahari_war_elephants_min_modifier 
						duration = -1 
					} 
				} 
			}
		} 
	}
	
	crathanor_mouth_of_the_river = {
		icon = mission_market_place_with_asian_traders
		position = 7
		required_missions = {
			crathanor_setting_sun
		}
		
		provinces_to_highlight = {
			AND = {
				OR = {
					AND = {
						area = outer_drolas_area
						NOT = { country_or_non_sovereign_subject_holds = ROOT }
					}
					AND = {
						area = inner_drolas_area
						NOT = { country_or_non_sovereign_subject_holds = ROOT }
					}
					AND = {
						area = upper_brasan_area
						NOT = { country_or_non_sovereign_subject_holds = ROOT }
					}
					AND = {
						area = lower_brasan_area
						NOT = { country_or_non_sovereign_subject_holds = ROOT }
					}
					AND = {
						area = medurubar_area
						NOT = { country_or_non_sovereign_subject_holds = ROOT }
					}
					AND = {
						area = anzabad_area
						NOT = { country_or_non_sovereign_subject_holds = ROOT }
					}
					province_id = 625
					province_id = 2909
				}
			}
		}
		
		trigger = {
			if = { limit = { OR = { is_subject_of = F23 alliance_with = F23 } }
				outer_drolas_area = {
					type = all
					OR = {
						country_or_non_sovereign_subject_holds = ROOT
						country_or_non_sovereign_subject_holds = F23
					}
				}
				inner_drolas_area = {
					type = all
					OR = {
						country_or_non_sovereign_subject_holds = ROOT
						country_or_non_sovereign_subject_holds = F23
					}
				}
				upper_brasan_area = {
					type = all
					OR = {
						country_or_non_sovereign_subject_holds = ROOT
						country_or_non_sovereign_subject_holds = F23
					}
				}
				lower_brasan_area = {
					type = all
					OR = {
						country_or_non_sovereign_subject_holds = ROOT
						country_or_non_sovereign_subject_holds = F23
					}
				}
				medurubar_area = {
					type = all
					OR = {
						country_or_non_sovereign_subject_holds = ROOT
						country_or_non_sovereign_subject_holds = F23
					}
				}
				anzabad_area = {
					type = all
					OR = {
						country_or_non_sovereign_subject_holds = ROOT
						country_or_non_sovereign_subject_holds = F23
					}
				}
				OR = {
					AND = {
						exists = F25
						F25 = {
							trade_embargo_by = ROOT
						}
					}
					625 = {
						owner = {
							OR = {
								has_opinion_modifier = { 
									who = ROOT 
									modifier = insulted 
								}
								has_opinion_modifier = {
									who = ROOT
									modifier = scornfully_insulted
								}
							}
						}
					}
					625 = {
						OR = {
							country_or_non_sovereign_subject_holds = ROOT
							country_or_non_sovereign_subject_holds = F23
						}
					}
				}
				OR = {
					AND = {
						exists = F46
						F46 = {
							trade_embargo_by = ROOT
						}
					}
					2909 = {
						owner = {
							OR = {
								has_opinion_modifier = { 
									who = ROOT 
									modifier = insulted 
								}
								has_opinion_modifier = {
									who = ROOT
									modifier = scornfully_insulted
								}
							}
						}
					}
					2909 = {
						OR = {
							country_or_non_sovereign_subject_holds = ROOT
							country_or_non_sovereign_subject_holds = F23
						}
					}
				}
			}
			else = {
				outer_drolas_area = {
					type = all
					country_or_non_sovereign_subject_holds = ROOT
				}
				inner_drolas_area = {
					type = all
					country_or_non_sovereign_subject_holds = ROOT
				}
				upper_brasan_area = {
					type = all
					country_or_non_sovereign_subject_holds = ROOT
				}
				lower_brasan_area = {
					type = all
					country_or_non_sovereign_subject_holds = ROOT
				}
				medurubar_area = {
					type = all
					country_or_non_sovereign_subject_holds = ROOT
				}
				anzabad_area = {
					type = all
					country_or_non_sovereign_subject_holds = ROOT
				}
				OR = {
					AND = {
						exists = F25
						F25 = {
							trade_embargo_by = ROOT
						}
					}
					625 = {
						owner = {
							OR = {
								has_opinion_modifier = { 
									who = ROOT 
									modifier = insulted 
								}
								has_opinion_modifier = {
									who = ROOT
									modifier = scornfully_insulted
								}
							}
						}
					}
					625 = {
						country_or_non_sovereign_subject_holds = ROOT
					}
				}
				OR = {
					AND = {
						exists = F46
						F46 = {
							trade_embargo_by = ROOT
						}
					}
					2909 = {
						owner = {
							OR = {
								has_opinion_modifier = { 
									who = ROOT 
									modifier = insulted 
								}
								has_opinion_modifier = {
									who = ROOT
									modifier = scornfully_insulted
								}
							}
						}
					}
					2909 = {
						country_or_non_sovereign_subject_holds = ROOT
					}
				}
			}
		}
		
		effect = {
			add_prestige = 10
			add_dip_power = 50
			add_country_modifier = {
				name = crathanor_mouth_of_river_modifier
				duration = 3650
			}
			custom_tooltip = crathanor_annailsub.tt
			hidden_effect = {
				if = {
					limit = {
						6761 = {
							owned_by_subject_of = ROOT
						}
					}
					6761 = {
						cede_province = ROOT
						add_core = ROOT
					}
				}
			}
		}
	}
		
	crathanor_nahisabate_system = {
		icon = mission_friends_or_enemies
		position = 8
		required_missions = {
			crathanor_mouth_of_the_river
			crathanor_heartlands_of_the_sun
		}
		
		trigger = {
			calc_true_if = {
				all_subject_country = {
					is_subject_of_type = vassal
					NOT = {	liberty_desire = 50 }
					has_opinion = { who = ROOT value = 200 }
				}
				amount = 5
			}
		}
		
		effect = {
			custom_tooltip = crathanor_republic_shift.tt
			hidden_effect = {
				every_subject_country = {
					limit = {
						AND = {
							OR = {
								has_reform = autocracy_reform
								has_reform = phoenix_akalate
							}
							capital_scope = { region = bulwar_proper_region }
						}
					}
					change_government = republic
					add_government_reform = merchant_republic
				}
			}
			set_estate_privilege = estate_burghers_nahisabate_system
		}
	}
	
	crathanor_buffer_for_borders = {
		icon = mission_crowning
		position = 9
		required_missions = {
			crathanor_nahisabate_system
			crathanor_sword_strikes_west
		}
		
		provinces_to_highlight = {
			OR = {
				area = arannen_area
				area = gisden_area
				area = eastborders_area
			}
			NOT = {
				country_or_non_sovereign_subject_holds = ROOT
			}
		}
		
		trigger = {
			arannen_area = {
				type = all
				OR = {
					owned_by = ROOT
					owned_by = Z06
				}
			}
			gisden_area = {
				type = all
				OR = {
					owned_by = ROOT
					owned_by = Z06
				}
			}
			eastborders_area = {
				type = all
				OR = {
					owned_by = ROOT
					owned_by = Z06
				}
			}
			num_of_provinces_owned_or_owned_by_non_sovereign_subjects_with = {
				area = arannen_area
				value = 1
				fort_level = 1
			}
			num_of_provinces_owned_or_owned_by_non_sovereign_subjects_with = {
				area = gisden_area
				value = 1
				fort_level = 1
			}
			num_of_provinces_owned_or_owned_by_non_sovereign_subjects_with = {
				area = eastborders_area
				value = 1
				fort_level = 1
			}
		}
		
		effect = {
			custom_tooltip = crathanor_borders_buffer.tt
			if = {
				limit = {
					NOT = {
						exists = Z06
					}
				}
				hidden_effect = {
					eastborders_area = { add_core = Z06 }
				}
				create_vassal_with_religion_and_culture = { tag = Z06 religion = ROOT culture = arannese }
				hidden_effect = {
					Z06 = {
						change_government = republic
						add_government_reform = merchant_republic
						gisden_area = {
							cede_province = Z06
							add_core = Z06
						}
						arannen_area = {
							cede_province = Z06
							add_core = Z06
						}
						eastborders_area = {
							cede_province = Z06
							add_core = Z06
						}						
						set_capital = 904
						add_country_modifier = {
						name = crathanor_brinkmarches_modifier
							duration = -1
						}
					}
				}
			}
			else_if = {
				limit = {
					Z06 = {
						exists = yes
					}
				}
				hidden_effect = {
					Z06 = {
						change_government = republic
						add_government_reform = merchant_republic
						add_republican_tradition = 15
						set_capital = 904
						add_country_modifier = {
							name = crathanor_brinkmarches_modifier
							duration = -1
						}
					}
				}
			}
		}
	}
}
 
crathanor_missions_slot_2 = { 
	slot = 2  
	generic = no 
	ai = yes  
	has_country_shield = yes 
	potential = {
		OR = {
			tag = U17
			AND = {
				tag = F52
				was_tag = U17
			}
		}
	}
	 
	crathanor_our_first_friends = { 
		icon = mission_alliances 
		position = 1 
		
		provinces_to_highlight = {
			province_id = 526
		}
	 
		trigger = {
			if = {
				limit = { 
					ai = yes
					F23 = { ai = no }
				}
				always = yes
			}
			else = {
				526 = {
					owner = {
						has_opinion_modifier = {
							who = ROOT 
							modifier = sent_gift 
						}
						has_opinion = {
							who = ROOT 
							value = 175 
						}
						gives_military_access_to = ROOT 
						receives_military_access_from = ROOT 
					} 
				} 
			}
		} 
		 
		effect = { 
			if = {
				limit = { 
					ai = yes
				}
				set_ai_personality = { 
					personality = ai_balanced
					locked = yes
				}
				set_ai_attitude = {
					attitude = attitude_hostile
					who = U14
					locked = yes
				}
			}
			add_country_modifier = { 
				name = crathanor_brothers_in_arms 
				duration = 3650 
			} 
			U14 = {
				every_owned_province = {
					add_permanent_claim = ROOT 
				}
			} 
		} 
	} 
 
	crathanor_not_your_mountains = { 
		icon = mission_heated_battle 
		position = 2 
		required_missions = { 
			crathanor_our_first_friends 
			crathanor_dawn_of_crathanor 
		} 
		
		provinces_to_highlight = {
			owned_by = U14
			NOT = { 
				country_or_non_sovereign_subject_holds = ROOT 
			}
		}
		 
		trigger = { 
			NOT = { exists = U14 } 
			527 = { 
				owned_by = F23 
			} 
			526 = { 
				owner = { 
					has_opinion = { 
						who = ROOT  
						value = 200 
					} 
				} 
			} 
		} 
		 
		effect = {  
			define_advisor = { 
				type = statesman 
				skill = 1 
				culture = copper_dwarf 
				discount = yes 
			}
			516 = { 
				add_unit_construction = { 
					type = light_ship 
					amount = 3 
					speed = 1 
					cost = 0 
				} 
			}
			F23 = { 
				country_event = { id = flavor_crathanor.3 } 
			}
			custom_tooltip = crathanor_flavor.3.tt
		} 
	}

	crathanor_together_we_rise = {
		icon = mission_dwarf_close_up
		position = 3
		required_missions = {
			crathanor_not_your_mountains
		}
		
		provinces_to_highlight = { 
			area = tungr_mountains_area
			NOT = { 
				country_or_non_sovereign_subject_holds = F23
			}
		}
		
		trigger = {
			OR = {
				num_of_galley = 15
				num_of_heavy_ship = 3
			}
			U17 = {
				navy_size = F23
			}
			tungr_mountains_area = {
				type = all 
				country_or_non_sovereign_subject_holds = F23
			}
			F23 = {
				trust = {
					who = ROOT
					value = 70
				}
			}
		}
		
		effect = {
			largest_increase_of_dwarven_tolerance_effect = yes	
			country_event = { id = flavor_crathanor.6 }			
			bahar_region = {
				add_permanent_claim = ROOT
			}
		}
	}
	
	crathanor_secure_the_shipyards = {
		icon = mission_galleys_in_port
		position = 4
		required_missions = {
			crathanor_together_we_rise
			crathanor_embrace_the_two_principles
		}
		
		provinces_to_highlight = {
			OR = {
				AND = {
					OR = {
						area = aqatbahar_area
						area = fajabahar_area
						area = zagnabad_area
					}
					NOT = { 
						country_or_non_sovereign_subject_holds = ROOT 
					}
				}
				AND = {
					province_id = 536
					NOT = {
						has_dock_building_trigger = yes
					}
				}
			}
		}
		
		trigger = {
			if = { limit = { OR = { is_subject_of = F23 alliance_with = F23 } }
				536 = {
					OR = {
						country_or_non_sovereign_subject_holds = ROOT				
						country_or_non_sovereign_subject_holds = F23
					}
					has_dock_building_trigger = yes
				}
				aqatbahar_area = {
					type = all
					OR = {
						country_or_non_sovereign_subject_holds = ROOT
						country_or_non_sovereign_subject_holds = F23
					}
				}
				fajabahar_area = {
					type = all
					OR = {
						country_or_non_sovereign_subject_holds = ROOT
						country_or_non_sovereign_subject_holds = F23
					}
				}
				zagnabad_area = {
					type = all
					OR = {
						country_or_non_sovereign_subject_holds = ROOT
						country_or_non_sovereign_subject_holds = F23
					}
				}

			}
			else = {
				536 = {
					country_or_non_sovereign_subject_holds = ROOT				
					has_dock_building_trigger = yes
				}
				aqatbahar_area = {
					type = all
					country_or_non_sovereign_subject_holds = ROOT
				}
				fajabahar_area = {
					type = all
					country_or_non_sovereign_subject_holds = ROOT
				}
				zagnabad_area = {
					type = all
					country_or_non_sovereign_subject_holds = ROOT
				}
			}
		}
		
		effect = {
			add_country_modifier = {
				name = crathanor_bahari_liberators
				duration = 3650
			}
		}
	}
	
	crathanor_ending_devastation = {
		icon = mission_early_game_buildings
		position = 5
		required_missions = {
			crathanor_secure_the_shipyards
		}
		
		provinces_to_highlight = {
			OR = {
				AND = {
					region = bahar_region
					NOT = { 
						country_or_non_sovereign_subject_holds = ROOT 
					}
					NOT = {
						local_autonomy = 25
					}
				}
				AND = {
					province_id = 536 #Aqatbar
					NOT = {
						num_of_times_improved_by_owner = 5
					}
				}
			}
		}
		
		trigger = {
			bahar_region = {
				type = all
				OR = {
					country_or_non_sovereign_subject_holds = ROOT
					country_or_non_sovereign_subject_holds = F23
				}
				NOT = { unrest = 1 }
			}
			custom_trigger_tooltip = {
				tooltip = crathanor_bahar_autonomy.tt
				NOT = {
					any_owned_province = {
						region = bahar_region
						local_autonomy = 25
					}
				}
			}
			536 = {
				num_of_times_improved_by_owner = 5
			}
		}
		
		effect = {
			bahar_region = {
				add_province_modifier = {
					name = crathanor_ilatani_oversight
					duration = 18250
				}
			}
			add_power_projection = { 
				type = mission_rewards_power_projection
				amount = 25
			}
		}
	}
	
	crathanor_setting_sun = {
		icon = mission_unite_west_india
		position = 6
		required_missions = {
			crathanor_ending_devastation
		}
		
		provinces_to_highlight = {
			OR = {
				province_id = 565
				province_id = 560
				province_id = 601
			}
		}
		
		trigger = {
			custom_trigger_tooltip = {
				tooltip = crathanor_setting_sun_spy.tt
				OR = {
					F24 = {
						is_subject_of = ROOT
					}
					AND = {
						exists = F24
						565 = {
							owner = {
								has_spy_network_from = {
									who = ROOT
									value = 50
								}
							}
							country_or_non_sovereign_subject_holds = F24
						}
					}
					AND = {
						exists = F24
						565 = {
							owner = {
								has_spy_network_from = {
									who = ROOT
									value = 50
								}
							}
							NOT = { country_or_non_sovereign_subject_holds = F24 }
						}
					}
					AND = {
						NOT = {
							exists = F24
						}
						565 = {
							owner = {
								has_spy_network_from = {
									who = ROOT
									value = 50
								}
							}
						}
					}
					AND = {
						565 = {
							owner = {
								is_subject = yes
								overlord = {
									has_spy_network_from = {
										who = ROOT
										value = 50
									}
								}
							}
						}
					}
					565 = {
						country_or_non_sovereign_subject_holds = ROOT
					}
				}
				OR = {
					F40 = {
						is_subject_of = ROOT
					}
					AND = {
						exists = F40
						560 = {
							owner = {
								has_spy_network_from = {
									who = ROOT
									value = 50
								}
							}
							country_or_non_sovereign_subject_holds = F40
						}
					}
					AND = {
						exists = F40
						560 = {
							owner = {
								has_spy_network_from = {
									who = ROOT
									value = 50
								}
							}
							NOT = { country_or_non_sovereign_subject_holds = F40 }
						}
					}
					AND = {
						NOT = {
							exists = F40
						}
						560 = {
							owner = {
								has_spy_network_from = {
									who = ROOT
									value = 50
								}
							}
						}
					}
					AND = {
						560 = {
							owner = {
								is_subject = yes
								overlord = {
									has_spy_network_from = {
										who = ROOT
										value = 50
									}
								}
							}
						}
					}
					560 = {
						country_or_non_sovereign_subject_holds = ROOT
					}
				}
				OR = {
					F39 = {
						is_subject_of = ROOT
					}
					AND = {
						exists = F39
						601 = {
							owner = {
								has_spy_network_from = {
									who = ROOT
									value = 50
								}
							}
							country_or_non_sovereign_subject_holds = F39
						}
					}
					AND = {
						exists = F39
						601 = {
							owner = {
								has_spy_network_from = {
									who = ROOT
									value = 50
								}
							}
							NOT = { country_or_non_sovereign_subject_holds = F39 }
						}
					}
					AND = {
						NOT = {
							exists = F39
						}
						601 = {
							owner = {
								has_spy_network_from = {
									who = ROOT
									value = 50
								}
							}
						}
					}
					AND = {
						601 = {
							owner = {
								is_subject = yes
								overlord = {
									has_spy_network_from = {
										who = ROOT
										value = 50
									}
								}
							}
						}
					}
					601 = {
						country_or_non_sovereign_subject_holds = ROOT
					}
				}
			}
		}
		
		effect = {
			if = {
				limit = {
					exists = F24
					NOT = { is_subject_of = ROOT }
				}
				add_casus_belli = {
					target = F24
					type = cb_vassalize_mission
					months = 240
				}
			}
			else = {
				add_dip_power = 50
			}
			if = {
				limit = {
					exists = F40
					NOT = { is_subject_of = ROOT }
				}
				add_casus_belli = {
					target = F40
					type = cb_vassalize_mission
					months = 240
				}
			}
			else = {
				add_dip_power = 50
			}
			if = {
				limit = {
					exists = F39
					NOT = { is_subject_of = ROOT }
				}
				add_casus_belli = {
					target = F39
					type = cb_vassalize_mission
					months = 240
				}
			}
			else = {
				add_dip_power = 50
			}
			custom_tooltip = crathanor_setting_sun_claims.tt
			hidden_effect = {
				outer_drolas_area = {
					add_permanent_claim = ROOT
				}
				inner_drolas_area = {
					add_permanent_claim = ROOT
				}
				lower_brasan_area = {
					add_permanent_claim = ROOT
				}
				upper_brasan_area = {
					add_permanent_claim = ROOT
				}
				medurubar_area = {
					add_permanent_claim = ROOT
				}	
				anzabad_area = {
					add_permanent_claim = ROOT
				}
				irrliam_area = {
					add_permanent_claim = ROOT
				}
				bulwar_area = {
					add_permanent_claim = ROOT
				}
				zansap_area = {
					add_permanent_claim = ROOT
				}
				anzarzax_area = {
					add_permanent_claim = ROOT
				}
				kumarkand_area = {
					add_permanent_claim = ROOT
				}
				kuz_mountains_area = {
					add_permanent_claim = ROOT
				}
				imuluses_area = {
					add_permanent_claim = ROOT
				}
			}
		}
	}
	
	crathanor_heartlands_of_the_sun = {
		icon = mission_sunset_alternative
		position = 7
		required_missions = {
			crathanor_setting_sun
		}
		
		provinces_to_highlight = {
			AND = {
				OR = {
					AND = {
						area = zansap_area
						NOT = { country_or_non_sovereign_subject_holds = ROOT }
					}
					AND = {
						area = bulwar_area
						NOT = { country_or_non_sovereign_subject_holds = ROOT }
					}
					AND = {
						area = irrliam_area
						NOT = { country_or_non_sovereign_subject_holds = ROOT }
					}
					AND = {
						area = kumarkand_area
						NOT = { country_or_non_sovereign_subject_holds = ROOT }
					}
					AND = {
						area = anzarzax_area
						NOT = { country_or_non_sovereign_subject_holds = ROOT }
					}
					province_id = 687
					province_id = 487
				}
			}
		}

		trigger = {
			if = { limit = { ROOT = { OR = { is_subject_of = F23 alliance_with = F23 } } }
				zansap_area = {
					type = all
					OR = {
						country_or_non_sovereign_subject_holds = ROOT 
						country_or_non_sovereign_subject_holds = F23 
					}
				}
				bulwar_area = {
					type = all
					OR = {
						country_or_non_sovereign_subject_holds = ROOT 
						country_or_non_sovereign_subject_holds = F23 
					}
				}
				irrliam_area = {
					type = all
					OR = {
						country_or_non_sovereign_subject_holds = ROOT 
						country_or_non_sovereign_subject_holds = F23 
					}
				}
				kumarkand_area = {
					type = all
					OR = {
						country_or_non_sovereign_subject_holds = ROOT 
						country_or_non_sovereign_subject_holds = F23 
					}
				}
				anzarzax_area = {
					type = all
					OR = {
						country_or_non_sovereign_subject_holds = ROOT 
						country_or_non_sovereign_subject_holds = F23 
					}
				}
				OR = {
					AND = {
						exists = F28
						F28 = {
							trade_embargo_by = ROOT
						}
					}
					688 = {
						owner = {
							OR = {
								has_opinion_modifier = { 
									who = ROOT 
									modifier = insulted 
								}
								has_opinion_modifier = {
									who = ROOT
									modifier = scornfully_insulted
								}
							}
						}
					}
					688 = {
						OR = {
							country_or_non_sovereign_subject_holds = ROOT 
							country_or_non_sovereign_subject_holds = F23 
						}
					}
				}
				OR = {
					AND = {
						exists = U09
						U09 = {
							trade_embargo_by = ROOT
						}
					}
					487 = {
						owner = {
							OR = {
								has_opinion_modifier = { 
									who = ROOT 
									modifier = insulted 
								}
								has_opinion_modifier = {
									who = ROOT
									modifier = scornfully_insulted
								}
							}
						}
					}
					487 = {
						OR = {
							country_or_non_sovereign_subject_holds = ROOT 
							country_or_non_sovereign_subject_holds = F23 
						}
					}
				}
			}
			else = {
				zansap_area = {
					type = all
					country_or_non_sovereign_subject_holds = ROOT 
				}
				bulwar_area = {
					type = all
					country_or_non_sovereign_subject_holds = ROOT 
				}
				irrliam_area = {
					type = all
					country_or_non_sovereign_subject_holds = ROOT 
				}
				kumarkand_area = {
					type = all
					country_or_non_sovereign_subject_holds = ROOT 
				}
				anzarzax_area = {
					type = all
					country_or_non_sovereign_subject_holds = ROOT 
				}
				OR = {
					AND = {
						exists = F28
						F28 = {
							trade_embargo_by = ROOT
						}
					}
					688 = {
						owner = {
							OR = {
								has_opinion_modifier = { 
									who = ROOT 
									modifier = insulted 
								}
								has_opinion_modifier = {
									who = ROOT
									modifier = scornfully_insulted
								}
							}
						}
					}
					688 = {
						country_or_non_sovereign_subject_holds = ROOT
					}
				}
				OR = {
					AND = {
						exists = U09
						U09 = {
							trade_embargo_by = ROOT
						}
					}
					487 = {
						owner = {
							OR = {
								has_opinion_modifier = { 
									who = ROOT 
									modifier = insulted 
								}
								has_opinion_modifier = {
									who = ROOT
									modifier = scornfully_insulted
								}
							}
						}
					}
					487 = {
						country_or_non_sovereign_subject_holds = ROOT
					}
				}
			}
		}
		
		effect = {
			add_prestige = 10
			add_dip_power = 50
			add_country_modifier = {
				name = crathanor_heartlands_modifier
				duration = 3650
			}
			custom_tooltip = crathanor_heartlands_culture.tt
			hidden_effect = {
				zansap_area = {
					limit = { culture_is_gnollish = yes }
					change_culture = brasanni
					change_religion = bulwari_sun_cult
					add_devastation = 25
					add_nationalism = -5
				}
				bulwar_area = {
					limit = { culture_is_gnollish = yes }
					change_culture = zanite
					change_religion = bulwari_sun_cult
					add_devastation = 5
					add_nationalism = -5
				}
				irrliam_area = {
					limit = { culture_is_gnollish = yes }
					change_culture = brasanni
					change_religion = bulwari_sun_cult
					add_devastation = 25
					add_nationalism = -5
				}
				kumarkand_area = {
					limit = { culture_is_gnollish = yes }
					change_culture = zanite
					change_religion = bulwari_sun_cult
					add_devastation = 25
					add_nationalism = -5
				}
				anzarzax_area = {
					limit = { culture_is_gnollish = yes }
					change_culture = brasanni
					change_religion = bulwari_sun_cult
					add_devastation = 25
					add_nationalism = -5
				}
			}
		}
	}
	
	crathanor_sword_strikes_west = {
		icon = mission_expel_the_moriscos
		position = 8
		required_missions = {
			crathanor_kings_conquerors
		}
		
		provinces_to_highlight = { 
			OR = {
				area = gnollsgate_area
				area = hawkfields_area
				area = rhinmond_area
				area = highcliff_area
				area = antir_drop_area
			}
			NOT = {
				country_or_non_sovereign_subject_holds = ROOT
			}
		}
		
		trigger = {
			gnollsgate_area = {
				type = all
				owned_by = ROOT
				is_core = ROOT
			}
			hawkfields_area = {
				type = all
				owned_by = ROOT
				is_core = ROOT
			}
			rhinmond_area = {
				type = all
				owned_by = ROOT
				is_core = ROOT
			}
			highcliff_area = {
				type = all
				owned_by = ROOT
				is_core = ROOT
			}
			antir_drop_area = {
				type = all
				owned_by = ROOT
				is_core = ROOT
			}
			413 = {
				province_has_center_of_trade_of_level = 2
				has_trade_building_trigger = yes
			}
			417 = {
				province_has_center_of_trade_of_level = 2
				has_trade_building_trigger = yes
			}
		}
		
		effect = {
			413 = {
				add_center_of_trade_level = 1
			}
			add_country_modifier = {
				name = crathanor_itrahures_coast
				duration = -1
			}
			gisden_area = {
				add_permanent_claim = ROOT
			}
			arannen_area = {
				add_permanent_claim = ROOT
			}
			eastborders_area = {
				add_permanent_claim = ROOT
			}
		}
	}
	
	crathanor_convene_resplendent_council = {
		icon = mission_swear_fealty_knight
		position = 10
		required_missions = {
			crathanor_buffer_for_borders
			crathanor_letting_mother_rest
		}
		
		trigger = {
			all_subject_country = {
				OR = {
					is_colonial_nation = yes
					AND = {
						NOT = {
							liberty_desire = 10
						}
						has_opinion = {
							who = ROOT
							value = 200
						}
						has_divert_trade = yes
						OR = {
							NOT = {
								all_known_country = {
									is_enemy = ROOT
								}
							}
							has_embargo_rivals = yes
						}
					}
				}
			}
			estate_loyalty = { 
				estate = estate_burghers
				loyalty = 80
			}
			mercantilism = 90
		}
		
		effect = {
			set_estate_privilege = estate_burghers_nahisabate_system_upgrade
			hidden_effect = {
				remove_estate_privilege = estate_burghers_nahisabate_system
			}
			add_country_modifier = {
				name = crathanor_crathanorian_lake
				duration = -1
			}
			add_power_projection = { 
				type = 10_permanent_power_projection
				amount = 10
			}
		}
	}
}	
 
crathanor_missions_slot_3 = { 
	slot = 3 
	generic = no 
	ai = yes 
	has_country_shield = yes 
	potential = {
		OR = {
			tag = U17
			AND = {
				tag = F52
				was_tag = U17
			}
		}
	}
	 
	crathanor_dawn_of_crathanor = { 
		icon = mission_guarded_market 
		position = 1
		
		provinces_to_highlight = {
			owned_by = U18
		}
		 
		trigger = {
			OR = {
				U17 = {
					is_rival = U18 
				}
				U18 = {
					has_opinion_modifier = { 
						who = U17 
						modifier = insulted 
					}
				}
				NOT = { exists = U18 }
			} 
			employed_advisor = {  
				category = MIL 
			} 
		} 
		 
		effect = { 
			reuyel_area = { 
				add_permanent_claim = U17 
			} 
			U11 = { 
				every_owned_province = { 
					add_permanent_claim = U17  
				} 
			} 
		} 
	}

	crathanor_end_noble_republic = {
		icon = mission_burning_man
		position = 2
		required_missions = {
			crathanor_dawn_of_crathanor
		}
		
		provinces_to_highlight = {
			area = reuyel_area
			NOT = {
				owned_by = ROOT
			}
		}
		
		trigger = {
			reuyel_area = {
				type = all
				country_or_non_sovereign_subject_holds = ROOT
			}
			521 = {
				num_of_units_in_province = {
					who = ROOT
					amount = 10
				}
			}
		}
		
		effect = {
			add_prestige = 10
			521 = {
				add_base_tax = -2
				add_base_production = -2
				add_base_manpower = -2
			}
			516 = {
				add_base_tax = 1
				add_base_production = 1
				add_base_manpower = 1
			}
			reuyel_area = {
				add_province_modifier ={
					name = crathanor_crathanori_victory
					duration = 3650
				}
			}
		}
	}
	
	crathanor_inevitable_dilemma = {
		icon = mission_discussion_arch
		position = 3
		required_missions = {
			crathanor_end_noble_republic
		}
		
		provinces_to_highlight = {
			province_id = 516
			NOT = {
				has_tax_building_trigger = yes
			}
		}
		
		trigger = {
			516 = {
				has_tax_building_trigger = yes
			}
			if = {
				limit = { has_dlc = "Rule Britannia" }
				innovativeness = 25
			}
			
			OR = {
				AND = {
					has_idea_group = innovativeness_ideas
					innovativeness_ideas = 1
				}
				AND = {
					has_idea_group = humanist_ideas
					humanist_ideas = 1
				}
			}
			all_neighbor_country = {	
				NOT = {
					tech_difference = 1
				}
			}
			has_institution = renaissance
		}

		effect = {
			country_event = { id = flavor_crathanor.9 }
			define_advisor = { 
				type = statesman 
				name = "Mihran szel-Azkabar"
				skill = 1 
				culture = ilatani 
				religion = bulwari_sun_cult 
				discount = yes 
			}	
			define_advisor = { 
				type = statesman 
				name = "Rogier sil Crathano"
				skill = 1 
				culture = ilatani 
				religion = regent_court 
				discount = yes 
			}
		}
	}
	
	crathanor_concurring_with_court = {
		icon = mission_priest_church
		position = 4
		required_missions = {
			crathanor_inevitable_dilemma
		}
		
		trigger = {
			NOT = { has_country_modifier = crathanor_first_debate_reaction }
			num_of_owned_provinces_with = { 
				value = 10
				religion = regent_court
				has_tax_building_trigger = yes 
			} 
            NOT = {
                any_owned_province = {
                    religion = regent_court
                    unrest = 1
                }
            }
		}
		
		effect = {
			country_event = { id = flavor_crathanor.10 }
		}
	}
	
	crathanor_consulting_with_cult = {
		icon = mission_sun_temple
		position = 5
		required_missions = {
			crathanor_concurring_with_court
			crathanor_secure_the_shipyards
		}
		
		provinces_to_highlight = { 
			region = bahar_region
			NOT = {
				country_or_non_sovereign_subject_holds = ROOT
			}
		}
		
		trigger = {
			NOT = { has_country_modifier = crathanor_second_debate_reaction }
            NOT = {
                any_owned_province = {
                    religion = bulwari_sun_cult
                    unrest = 1
                }
            }
			if = { limit = { ROOT = { OR = { is_subject_of = F23 alliance_with = F23 } } }
				bahar_region = {
					type = all
					OR = {
						country_or_non_sovereign_subject_holds = ROOT
						country_or_non_sovereign_subject_holds = F23
					}
				}
			}
			else = {
				bahar_region = {
					type = all
					country_or_non_sovereign_subject_holds = ROOT
				}
			}
		}
		
		effect = {
			country_event = { id = flavor_crathanor.11 }
			custom_tooltip = crathanor_nsc_change.tt
			hidden_effect = {
				bulwar_superregion = {
					limit = {
						OR = {
							religion = goblinic_shamanism
							religion = old_bulwari_sun_cult
						}
						country_or_non_sovereign_subject_holds = ROOT
					}
					change_religion = bulwari_sun_cult
					add_province_modifier = {
						name = crathanor_conversion_unrest
						duration = 3650
					}	
				}
			}
		}
	}
	
	crathanor_broken_sceptre_beautiful_sun = {
		icon = mission_pray_light
		position = 6
		required_missions = {
			crathanor_consulting_with_cult
		}
		
		provinces_to_highlight = { 
			owned_by = ROOT
			NOT = {
				has_tax_building_trigger = yes
			}
		}
		
		trigger = {
			custom_trigger_tooltip = {
				tooltip = crathanor_castellos_death.tt
				has_global_flag = castellos_is_dead
			}
			current_age = age_of_reformation
			NOT = { has_country_modifier = crathanor_third_debate_reaction }
			num_of_owned_provinces_with = {
				value = 25
				has_tax_building_trigger = yes
			}
			has_estate_privilege = estate_burghers_enforced_interfaith_dialogue
		}
		
		effect = {
			country_event = { id = flavor_crathanor.13 }
		}
	}
	
	crathanor_kings_conquerors = {
		icon = mission_confrontation
		position = 7
		required_missions = {
			crathanor_ilatani_revival
		}
		
		provinces_to_highlight = {
			OR = {
				AND = {
					region = businor_region
					country_or_non_sovereign_subject_holds = ROOT
					NOT = { local_autonomy = 25 }
				}
				AND = {
					owned_by = A29
				}
				AND = {
					owned_by = A49
				}
			}
		}
		
		trigger = {
			A29 = {
				NOT = {
					any_owned_province = {
						region = businor_region
					}
				}
			}
			A49 = {
				NOT = {
					any_owned_province = {
						region = businor_region
					}
				}
			}		
			any_owned_province = {
				region = businor_region
				NOT = {
					local_autonomy = 25
				}
			}
		}
		
		effect = {
			add_country_modifier = {
				name = crathanor_restoration
				duration = 10950
			}
			businor_region = {
				limit = { culture_group = gnollish }
				change_culture = busilari
			}
		}
	}
	
	crathanor_shores_of_sorrow = {
		icon = mission_fleet_arrival
		position = 8
		required_missions = {
			crathanor_kings_conquerors
		}
		
		provinces_to_highlight = { 
			province_id = 1305
		}
		
		trigger = {
			OR = {
				466 = {
					owner = {
						has_spy_network_from = {
							who = ROOT
							value = 50
						}
					}
				}
				owns_or_non_sovereign_subject_of = 466
			}
			naval_forcelimit = 50
			1305 = {
				is_strongest_trade_power = ROOT
				light_ships_in_province = 25
			}
		}
		
		effect = {
			custom_tooltip = crathanor_north_kheterata_claims.tt
			hidden_effect = {
				ohitsopot_area = {
					add_permanent_claim = ROOT
				}
				coast_of_tears_area = {
					add_permanent_claim = ROOT
				}
				mothers_delta_area = {
					add_permanent_claim = ROOT
				}
				hitputtiushesh_area = { 
					add_permanent_claim = ROOT
				}
				lower_sorrow_area = {
					add_permanent_claim = ROOT
				}
				ibtat_axast_area = {
					add_permanent_claim = ROOT
				}
				awaashesh_area = {
					add_permanent_claim = ROOT
				}	
				masusopot_area = {
					add_permanent_claim = ROOT
				}				
			}
		}
	}
	
	crathanor_letting_mother_rest = {
		icon = mission_sunset
		position = 9
		required_missions = {
			crathanor_shores_of_sorrow
			crathanor_spear_points_east
		}
		
		provinces_to_highlight = { 
			OR = {
				area = elizna_area
				area = ohitsopot_area
				area = coast_of_tears_area
				area = mothers_delta_area
				area = hitputtiushesh_area
				area = lower_sorrow_area
				area = ibtat_axast_area
				area = awaashesh_area
				area = masusopot_area
			}
			if = { limit = { ROOT = { OR = { is_subject_of = F23 alliance_with = F23 } } }
				OR = {
					country_or_non_sovereign_subject_holds = ROOT
					country_or_non_sovereign_subject_holds = F23
				}
			}
			else = {
				country_or_non_sovereign_subject_holds = ROOT
			}
		}
		
		trigger = {
			elizna_area = {
				type = all
				if = { limit = { ROOT = { OR = { is_subject_of = F23 alliance_with = F23 } } }
					OR = {
						country_or_non_sovereign_subject_holds = ROOT
						country_or_non_sovereign_subject_holds = F23
					}
				}
				else = {
					country_or_non_sovereign_subject_holds = ROOT
				}
			}
			ohitsopot_area = {
				type = all
				if = { limit = { ROOT = { OR = { is_subject_of = F23 alliance_with = F23 } } }
					OR = {
						country_or_non_sovereign_subject_holds = ROOT
						country_or_non_sovereign_subject_holds = F23
					}
				}
				else = {
					country_or_non_sovereign_subject_holds = ROOT
				}
			}
			coast_of_tears_area = {
				type = all
				if = { limit = { ROOT = { OR = { is_subject_of = F23 alliance_with = F23 } } }
					OR = {
						country_or_non_sovereign_subject_holds = ROOT
						country_or_non_sovereign_subject_holds = F23
					}	
				}
				else = {
					country_or_non_sovereign_subject_holds = ROOT
				}
			}
			mothers_delta_area = {
				type = all
				if = { limit = { ROOT = { OR = { is_subject_of = F23 alliance_with = F23 } } }
					OR = {
						country_or_non_sovereign_subject_holds = ROOT
						country_or_non_sovereign_subject_holds = F23
					}		
				}
				else = {
					country_or_non_sovereign_subject_holds = ROOT
				}
			}
			hitputtiushesh_area = {
				type = all
				if = { limit = { ROOT = { OR = { is_subject_of = F23 alliance_with = F23 } } }
					OR = {
						country_or_non_sovereign_subject_holds = ROOT
						country_or_non_sovereign_subject_holds = F23
					}		
				}
				else = {
					country_or_non_sovereign_subject_holds = ROOT
				}
			}
			lower_sorrow_area = {
				type = all
				if = { limit = { ROOT = { OR = { is_subject_of = F23 alliance_with = F23 } } }
					OR = {
						country_or_non_sovereign_subject_holds = ROOT
						country_or_non_sovereign_subject_holds = F23
					}		
				}
				else = {
					country_or_non_sovereign_subject_holds = ROOT
				}
			}
			ibtat_axast_area = {
				type = all
				if = { limit = { ROOT = { OR = { is_subject_of = F23 alliance_with = F23 } } }
					OR = {
						country_or_non_sovereign_subject_holds = ROOT
						country_or_non_sovereign_subject_holds = F23
					} 
				}
				else = {
					country_or_non_sovereign_subject_holds = ROOT
				}
			}
			awaashesh_area = {
				type = all
				if = { limit = { ROOT = { OR = { is_subject_of = F23 alliance_with = F23 } } }
					OR = {
						country_or_non_sovereign_subject_holds = ROOT
						country_or_non_sovereign_subject_holds = F23
					}
				}
				else = {
					country_or_non_sovereign_subject_holds = ROOT
				}
			}	
			masusopot_area = {
				type = all
				if = { limit = { ROOT = { OR = { is_subject_of = F23 alliance_with = F23 } } }
					OR = {
						country_or_non_sovereign_subject_holds = ROOT
						country_or_non_sovereign_subject_holds = F23
					}			
				}
				else = {
					country_or_non_sovereign_subject_holds = ROOT
				}
			}
			if = { limit = { NOT = { is_subject_of = F23 } }
				coast_of_tears_area = {
					type = all
					light_ships_in_province = 10
				}
				OR = {
					5481 = {
						owner = {
							has_opinion = {
								who = ROOT
								value = 150
							}
						}
					}
					5481 = {
						owner = {
							OR = {
								is_enemy = ROOT
								is_rival = ROOT
							}
						}	
					}
					5481 = {
						owned_by = ROOT
					}
				}
			}
		}
		
		effect = {
			if = {
				limit = { 
					elizna_area = {
						type = all
						owned_by = ROOT
					}
				}
				add_adm_power = 50
			}
			else = {
                elizna_area = {
                    limit = { owner = { is_subject_of = ROOT } } 
                    cede_province = ROOT
                }
			}
			custom_tooltip = crathanor_north_kheterata_vassals.tt
			hidden_effect = {
				if = {
					limit = {
						L28 = {
							exists = yes
							is_subject_of = ROOT
						}
					}
					ohitsopot_area = {
						limit = {
							country_or_non_sovereign_subject_holds = ROOT
						}
						cede_province = L28
					}
					coast_of_tears_area = {
						limit = {
							country_or_non_sovereign_subject_holds = ROOT
						}
						cede_province = L28
					}
					mothers_delta_area = {
						limit = {
							country_or_non_sovereign_subject_holds = ROOT
						}
						cede_province = L28
					}
					lower_sorrow_area = {
						limit = {
							country_or_non_sovereign_subject_holds = ROOT
						}
						cede_province = L28
					}
					hitputtiushesh_area = {
						limit = {
							country_or_non_sovereign_subject_holds = ROOT
						}
						cede_province = L28
					}
					L28 = {
						change_government = republic
						add_government_reform = merchant_republic
					}
				}
				if = {
					limit = {
						L27 = {
							exists = yes
							is_subject_of = ROOT
						}
					}	
					ibtat_axast_area = {
						limit = {
							country_or_non_sovereign_subject_holds = ROOT
						}
						cede_province = L27
					}
					awaashesh_area = {
						limit = {
							country_or_non_sovereign_subject_holds = ROOT
						}
						cede_province = L27
					}
					masusopot_area = {
						limit = {
							country_or_non_sovereign_subject_holds = ROOT
						}
						cede_province = L27
					}
					L27 = {
						change_government = republic
						add_government_reform = merchant_republic
					}
				}
				coast_of_tears_area = {
					add_permanent_province_modifier = {
						name = crathanor_mother_calmed
						duration = -1
					}
				}
			}
		}
	}
	
	crathanor_new_sun_old_shores = {
		icon = mission_approach_throne
		position = 11
		required_missions = {
			crathanor_convene_resplendent_council
			crathanor_beating_heart_divenhal
		}
		
		provinces_to_highlight = {
			OR = {
				province_id = 516
				province_id = 451
				province_id = 413
				province_id = 365
				province_id = 376
				province_id = 380
				province_id = 402
				province_id = 382
				province_id = 400
				province_id = 463
				province_id = 565
				province_id = 6761
				province_id = 560
				province_id = 536
				province_id = 526
				province_id = 521
			}
			OR = {
				NOT = {	OR = { country_or_non_sovereign_subject_holds = ROOT country_or_non_sovereign_subject_holds = F23 } }
				NOT = { has_trade_building_trigger = yes }
				NOT = {	province_has_center_of_trade_of_level = 2 }
				NOT = {	has_manufactory_trigger = yes }
			}
		}

		trigger = {
			custom_trigger_tooltip = { 
				tooltip = crathanor_new_sun_req.tt 
				hidden_trigger = {
					516 = { #Crathano
						if = { limit = { ROOT = { OR = { is_subject_of = F23 alliance_with = F23 } } } 
							OR = {
								country_or_non_sovereign_subject_holds = ROOT
								country_or_non_sovereign_subject_holds = F23
							}
						}
						else = {
							country_or_non_sovereign_subject_holds = ROOT
						}	
						has_trade_building_trigger = yes
						province_has_center_of_trade_of_level = 2
						has_manufactory_trigger = yes
					}
					451 = { #Nathalaire
						if = { limit = { ROOT = { OR = { is_subject_of = F23 alliance_with = F23 } } } 
							OR = {
								country_or_non_sovereign_subject_holds = ROOT
								country_or_non_sovereign_subject_holds = F23
							}
						}
						else = {
							country_or_non_sovereign_subject_holds = ROOT
						}	
						has_trade_building_trigger = yes
						province_has_center_of_trade_of_level = 2
						has_manufactory_trigger = yes
					}
					413 = { #Sorncell
						if = { limit = { ROOT = { OR = { is_subject_of = F23 alliance_with = F23 } } } 
							OR = {
								country_or_non_sovereign_subject_holds = ROOT
								country_or_non_sovereign_subject_holds = F23
							}
						}
						else = {
							country_or_non_sovereign_subject_holds = ROOT
						}	
						has_trade_building_trigger = yes
						province_has_center_of_trade_of_level = 2
						has_manufactory_trigger = yes
					}
					365 = { #Abtanus
						if = { limit = { ROOT = { OR = { is_subject_of = F23 alliance_with = F23 } } } 
							OR = {
								country_or_non_sovereign_subject_holds = ROOT
								country_or_non_sovereign_subject_holds = F23
							}
						}
						else = {
							country_or_non_sovereign_subject_holds = ROOT
						}	
						has_trade_building_trigger = yes
						province_has_center_of_trade_of_level = 2
						has_manufactory_trigger = yes
					}
					380 = { #Eborthil
						if = { limit = { ROOT = { OR = { is_subject_of = F23 alliance_with = F23 } } } 
							OR = {
								country_or_non_sovereign_subject_holds = ROOT
								country_or_non_sovereign_subject_holds = F23
							}
						}
						else = {
							country_or_non_sovereign_subject_holds = ROOT
						}	
						has_trade_building_trigger = yes
						province_has_center_of_trade_of_level = 2
						has_manufactory_trigger = yes
					}
					376 = { #Stingport
						if = { limit = { ROOT = { OR = { is_subject_of = F23 alliance_with = F23 } } } 
							OR = {
								country_or_non_sovereign_subject_holds = ROOT
								country_or_non_sovereign_subject_holds = F23
							}
						}
						else = {
							country_or_non_sovereign_subject_holds = ROOT
						}	
						has_trade_building_trigger = yes
						province_has_center_of_trade_of_level = 2
						has_manufactory_trigger = yes
					}
					402 = { #Ekha
						if = { limit = { ROOT = { OR = { is_subject_of = F23 alliance_with = F23 } } } 
							OR = {
								country_or_non_sovereign_subject_holds = ROOT
								country_or_non_sovereign_subject_holds = F23
							}
						}
						else = {
							country_or_non_sovereign_subject_holds = ROOT
						}	
						has_trade_building_trigger = yes
						province_has_center_of_trade_of_level = 2
						has_manufactory_trigger = yes
					}
					400 = { #Khasa
						if = { limit = { ROOT = { OR = { is_subject_of = F23 alliance_with = F23 } } } 
							OR = {
								country_or_non_sovereign_subject_holds = ROOT
								country_or_non_sovereign_subject_holds = F23
							}
						}
						else = {
							country_or_non_sovereign_subject_holds = ROOT
						}	
						has_trade_building_trigger = yes
						province_has_center_of_trade_of_level = 2
						has_manufactory_trigger = yes
					}
					382 = { #Deshak
						if = { limit = { ROOT = { OR = { is_subject_of = F23 alliance_with = F23 } } } 
							OR = {
								country_or_non_sovereign_subject_holds = ROOT
								country_or_non_sovereign_subject_holds = F23
							}
						}
						else = {
							country_or_non_sovereign_subject_holds = ROOT
						}	
						has_trade_building_trigger = yes
						province_has_center_of_trade_of_level = 2
						has_manufactory_trigger = yes
					}
					463 = { #Koroshesh
						if = { limit = { ROOT = { OR = { is_subject_of = F23 alliance_with = F23 } } } 
							OR = {
								country_or_non_sovereign_subject_holds = ROOT
								country_or_non_sovereign_subject_holds = F23
							}
						}
						else = {
							country_or_non_sovereign_subject_holds = ROOT
						}	
						has_trade_building_trigger = yes
						province_has_center_of_trade_of_level = 2
						has_manufactory_trigger = yes
					}
					565 = { #Brasan
						if = { limit = { ROOT = { OR = { is_subject_of = F23 alliance_with = F23 } } } 
							OR = {
								country_or_non_sovereign_subject_holds = ROOT
								country_or_non_sovereign_subject_holds = F23
							}
						}
						else = {
							country_or_non_sovereign_subject_holds = ROOT
						}	
						has_trade_building_trigger = yes
						province_has_center_of_trade_of_level = 2
						has_manufactory_trigger = yes
					}
					6761 = { #Annailsub
						if = { limit = { ROOT = { OR = { is_subject_of = F23 alliance_with = F23 } } } 
							OR = {
								country_or_non_sovereign_subject_holds = ROOT
								country_or_non_sovereign_subject_holds = F23
							}
						}
						else = {
							country_or_non_sovereign_subject_holds = ROOT
						}	
						has_trade_building_trigger = yes
						province_has_center_of_trade_of_level = 2
						has_manufactory_trigger = yes
					}
					560 = { #Anzabad
						if = { limit = { ROOT = { OR = { is_subject_of = F23 alliance_with = F23 } } } 
							OR = {
								country_or_non_sovereign_subject_holds = ROOT
								country_or_non_sovereign_subject_holds = F23
							}
						}
						else = {
							country_or_non_sovereign_subject_holds = ROOT
						}	
						has_trade_building_trigger = yes
						province_has_center_of_trade_of_level = 2
						has_manufactory_trigger = yes
					}
					536 = { #Aqatbar
						if = { limit = { ROOT = { OR = { is_subject_of = F23 alliance_with = F23 } } } 
							OR = {
								country_or_non_sovereign_subject_holds = ROOT
								country_or_non_sovereign_subject_holds = F23
							}
						}
						else = {
							country_or_non_sovereign_subject_holds = ROOT
						}	
						has_trade_building_trigger = yes
						province_has_center_of_trade_of_level = 2
						has_manufactory_trigger = yes
					}
					526 = { # Ovdal-Tungr
						if = { limit = { ROOT = { OR = { is_subject_of = F23 alliance_with = F23 } } } 
							OR = {
								country_or_non_sovereign_subject_holds = ROOT
								country_or_non_sovereign_subject_holds = F23
							}
						}
						else = {
							country_or_non_sovereign_subject_holds = ROOT
						}	
						has_trade_building_trigger = yes
						province_has_center_of_trade_of_level = 2
						has_manufactory_trigger = yes
					}
					521 = { # Re'Uyel
						if = { limit = { ROOT = { OR = { is_subject_of = F23 alliance_with = F23 } } } 
							OR = {
								country_or_non_sovereign_subject_holds = ROOT
								country_or_non_sovereign_subject_holds = F23
							}
						}
						else = {
							country_or_non_sovereign_subject_holds = ROOT
						}	
						has_trade_building_trigger = yes
						province_has_center_of_trade_of_level = 2
						has_manufactory_trigger = yes
					}			
				}
			}
			if = { limit = { OR = { is_subject_of = F23 alliance_with = F23 } } 
				1303 = { #Dostanesck
					OR = { is_strongest_trade_power = ROOT is_strongest_trade_power = F23 }
				}
				1296 = { #Eborthil
					OR = { is_strongest_trade_power = ROOT is_strongest_trade_power = F23 }
				}
				1309 = { #Brasan 
					OR = { is_strongest_trade_power = ROOT is_strongest_trade_power = F23 }
				}
				1305 = { #Mother's Sorrow
					OR = { is_strongest_trade_power = ROOT is_strongest_trade_power = F23 }
				}
				1312 = { #Bahar
					OR = { is_strongest_trade_power = ROOT is_strongest_trade_power = F23 }
				}
				1259 = { #Divenhal Gate
					OR = { is_strongest_trade_power = ROOT is_strongest_trade_power = F23 }
				}
				601 = { #Bulwar
					OR = { is_strongest_trade_power = ROOT is_strongest_trade_power = F23 }
				}
			}
			else = {
				1303 = { #Dostanesck
					is_strongest_trade_power = ROOT
				}
				1296 = { #Eborthil
					is_strongest_trade_power = ROOT
				}
				1309 = { #Brasan 
					is_strongest_trade_power = ROOT
				}
				1305 = { #Mother's Sorrow
					is_strongest_trade_power = ROOT
				}
				1312 = { #Bahar
					is_strongest_trade_power = ROOT
				}
				1259 = { #Divenhal Gate
					is_strongest_trade_power = ROOT
				}
				601 = { #Bulwar
					is_strongest_trade_power = ROOT
				}
			}
			num_of_light_ship = 250
			monthly_income = 1000
			if = { limit = { alliance_with = F23 }
				custom_trigger_tooltip = {
					tooltip = crathanor_new_sun_old_shores_trigger_tt
					NOT = { any_other_great_power = { monthly_income = ROOT NOT = { tag = F23 } } }
					NOT = { any_other_great_power = { num_of_heavy_ship = ROOT NOT = { tag = F23 } } }
				}
			}
			else = {
				if = { limit = { has_dlc = "Emperor" }
					OR = {
						is_hegemon_of_type = naval_hegemon
						is_hegemon_of_type = economic_hegemon
					}
				}
				NOT = { any_other_great_power = { monthly_income = ROOT } }
				NOT = { any_other_great_power = { num_of_heavy_ship = ROOT } }
			}
		}
		
		effect = {
			country_event = { id = flavor_crathanor.14 }
			custom_tooltip = crathanor_golden_age.tt
			if = {
				limit = { in_golden_age = yes }
				extend_golden_age = 600
			}
			else_if = {
				limit = { has_had_golden_age = yes }
				reset_golden_age = yes
			}
		}
	}
}
 
crathanor_missions_slot_4 = { 
	slot = 4 
	generic = no 
	ai = yes 
	has_country_shield = yes 
	potential = {
		OR = {
			tag = U17
			AND = {
				tag = F52
				was_tag = U17
			}
		}
	}
	 
	crathanor_hunting_sharks = { 
		icon = mission_destroyed_city 
		position = 2 
		required_missions = { 
			crathanor_dawn_of_crathanor 
		}
		
		provinces_to_highlight = {
			owned_by = U11
		}
		 
		trigger = { 
			506 = { 
				country_or_non_sovereign_subject_holds = ROOT
			} 
			507 = { 
				country_or_non_sovereign_subject_holds = ROOT
			} 
			6762 = { 
				country_or_non_sovereign_subject_holds = ROOT
			} 
			515 = { 
				country_or_non_sovereign_subject_holds = ROOT
			} 
			514 = { 
				country_or_non_sovereign_subject_holds = ROOT
			} 
			NOT = { 
				exists = U11 
			} 
			if = { limit = { NOT = { is_subject_of = F23 } }
				OR = { 
					has_country_modifier = racial_pop_goblin_purge 
					has_country_modifier = racial_pop_goblin_expulsion 
				} 
			}
		} 
		 
		effect = { 
			lencmarck_area = { 
				limit = { 
					NOT = { is_core = ROOT } 
					NOT = { is_permanent_claim = ROOT } 
				} 
				add_permanent_claim = ROOT 
			} 
			tencmarck_area = { 
				limit = { 
					NOT = { is_core = ROOT } 
					NOT = { is_permanent_claim = ROOT } 
				}				 
				add_permanent_claim = ROOT 
			} 
			oudmarck_area = { 
				limit = { 
					NOT = { is_core = ROOT } 
					NOT = { is_permanent_claim = ROOT } 
				}			 
				add_permanent_claim = ROOT 
			} 
		} 
	} 
	
	crathanor_empires_kingdoms_clans = {
		icon = mission_green_village
		position = 2
		required_missions = {
			crathanor_hunting_sharks
			crathanor_end_noble_republic
		}
		
		provinces_to_highlight = {
			region = ourdia_region
			NOT = {
				owned_by = ROOT
			}
		}
		
        trigger = {
            lencmarck_area = {
                type = all
                owned_by = ROOT
            }
            tencmarck_area = {
                type = all
                owned_by = ROOT
            }
            oudmarck_area = {
                type = all
                owned_by = ROOT
            }
			num_of_owned_provinces_with = {
                value = 5
                region = ourdia_region
                owned_by = ROOT
                has_manpower_building_trigger = yes
            } 
        }
		
        effect = {
			ourdia_region = {
				limit = { NOT = { culture = ourdi }	}
				change_culture = ourdi
				change_religion = root
			}
            anb_add_accepted_culture_or_dip_power = {
                culture = ourdi
				dip_reward = yes
            }
			add_country_modifier = {
				name = crathanor_collaborative_colonization_effort
				duration = 18250
			}
			create_colony_mission_reward = { province = 448 }
			448 = { add_colonysize = 400 }
		}
	}
	
	crathanor_rebirth_of_crathanor = {
		icon = mission_white_tower
		position = 3
		required_missions = {
			crathanor_empires_kingdoms_clans
		}
		
		provinces_to_highlight = {
			OR = {
				region = ourdia_region
				province_id = 452
				province_id = 510
				province_id = 516
				province_id = 521
				province_id = 526
			}
			NOT = {
				country_or_non_sovereign_subject_holds = ROOT
			}
		}

		trigger = {
			if = { limit = { OR = { is_subject_of = F23 alliance_with = F23 } }
				ourdia_region = {
					type = all
					OR = {
						country_or_non_sovereign_subject_holds = F23
						country_or_non_sovereign_subject_holds = ROOT
					}
				}
				reuyel_area = {
					type = all
					OR = {
						country_or_non_sovereign_subject_holds = F23
						country_or_non_sovereign_subject_holds = ROOT
					}
				}
				medbahar_area = {
					type = all
					OR = {
						country_or_non_sovereign_subject_holds = F23
						country_or_non_sovereign_subject_holds = ROOT
					}
				}

			}
			else = {
				ourdia_region = {
					type = all
					country_or_non_sovereign_subject_holds = ROOT
				}
				reuyel_area = {
					type = all
					country_or_non_sovereign_subject_holds = ROOT
				}
				medbahar_area = {
					type = all
					country_or_non_sovereign_subject_holds = ROOT
				}
			}
			452 = {		
				has_trade_building_trigger = yes
			}
			510 = {
				has_trade_building_trigger = yes
			}
			516 = {				
				has_trade_building_trigger = yes
			}
			521 = {
				has_trade_building_trigger = yes
			}
			526 = {				
				has_trade_building_trigger = yes
			}
		}
		
		effect = {
			add_country_modifier = { 
				name = crathanor_resplendent_republic
				duration = -1
			}
			crathanor_area = {
				add_prosperity = 100	
			}
		}
	}
	
	crathanor_returning_home = {
		icon = mission_establish_high_seas_navy
		position = 5
		required_missions = {
			crathanor_rebirth_of_crathanor
		}
		
		provinces_to_highlight = {
			province_id = 365
		}
		
		trigger = {
			navy_size = A29
			navy_size = A47
			OR = {
				num_of_galley = 20
				num_of_heavy_ship = 5
			}
			OR = {
				365 = {
					owner = {
						trade_embargo_by = ROOT
					}
				}
				365 = {
					country_or_non_sovereign_subject_holds = ROOT
				}
			}
			trading_policy_in_node = {
				node = 1296
				policy = hostile_trading
			}
		}
		effect = {
			country_event = { id = flavor_crathanor.7 }
		}
	}
	
	crathanor_ilatani_revival = {
		icon = mission_city_prosperity
		position = 6
		required_missions = {
			crathanor_returning_home
		}
		
		provinces_to_highlight = {
			OR = {
				AND = {
					area = lorbet_area
					NOT = { country_or_non_sovereign_subject_holds = ROOT }
				}
				AND = {
					area = busilar_area
					NOT = { country_or_non_sovereign_subject_holds = ROOT }
				}
				AND = {
					province_id = 365
					NOT = { has_trade_building_trigger = yes }
				}
				AND = {
					region = businor_region
					country_or_non_sovereign_subject_holds = ROOT
					NOT = { local_autonomy = 25 }
				}
			}
		}
		
		trigger = {
			if = { limit = { ai = no }
				accepted_culture = busilari
			}
			AND = {
				lorbet_area = {
					type = all
					country_or_non_sovereign_subject_holds = ROOT				
				}
				busilar_area = {
					type = all
					country_or_non_sovereign_subject_holds = ROOT				
				}
			}
			365 = {
				has_trade_building_trigger = yes
			}
			if = { limit = { NOT = { has_country_flag = crathanor_tungr_coop_easier_iltatani_revival_flag } }
				any_owned_province = {
					region = businor_region
					NOT = {
						local_autonomy = 25
					}
				}
			}
		}
		
		effect = {
			country_event = { id = flavor_crathanor.8 }
		}
	}
	
	crathanor_control_twin_passages = {
		icon = mission_unite_west_india
		position = 7
		required_missions = {
			crathanor_ilatani_revival
		}
		
		provinces_to_highlight = { 
			area = isle_of_tef_area
			NOT = {
				country_or_non_sovereign_subject_holds = ROOT
				owned_by = F23
			}
		}
		
		trigger = {
			OR = {
				isle_of_tef_area = {
					type = all
					country_or_non_sovereign_subject_holds = ROOT
				}
				isle_of_tef_area = {
					type = all
					owned_by = F23
				}
			}
			OR = {
				U06 = {
					AND = {
						is_subject_of = ROOT					
						has_opinion = {
							who = ROOT
							value = 150
						}
						NOT = { liberty_desire = 50 }
						has_divert_trade = yes
						OR = {
							NOT = {
								all_known_country = {
									is_enemy = ROOT
								}
							}
							has_embargo_rivals = yes
						}
					}
				}
				NOT = {
					exists = U06
				}
			}
		}
		
		effect = {
			custom_tooltip = crathanor_deshak_republic.tt
			hidden_effect = {
				if = {
					limit = {
						exists = U06
					}
					U06 = {
						change_government = republic
						add_government_reform = merchant_republic
						add_republican_tradition = 15
					}
				}
			}
			if = {
				limit = {
					U06 = {
						is_subject_of = ROOT
					}
				}
				akasik_region = {
					add_permanent_claim = U06
				}
			}
			akasik_region = {
				add_permanent_claim = ROOT
			}
		}
	}
	
	crathanor_spear_points_east = {
		icon = mission_horse_siege
		position = 8
		required_missions = {
			crathanor_control_twin_passages
		}
		
		provinces_to_highlight = {
			region = akasik_region
			NOT = {
				country_or_non_sovereign_subject_holds = ROOT
				owned_by = F23
			}
		}
		
		trigger = {
			akasik_region = {
				type = all
				OR = {
					country_or_non_sovereign_subject_holds = ROOT
					owned_by = F23
				}
			}
			382 = {
				has_trade_building_trigger = yes
				province_has_center_of_trade_of_level = 2
			}
			400 = {
				has_trade_building_trigger = yes
				province_has_center_of_trade_of_level = 2
			}
			402 = {
				has_trade_building_trigger = yes
				province_has_center_of_trade_of_level = 2
			}
			OR = {
				isle_of_tef_area = {
					owned_by = F23
				}
				accepted_culture = tefori
			}
		}
		
		effect = {
			middle_akasik_area = {
				change_culture = khasani
				change_religion = mother_akasik
				add_devastation = 15
			}
			akasik_mountains_area = {
				change_culture = khasani
				change_religion = mother_akasik
				add_devastation = 15
			}
			ekha_area = {
				change_culture = far_akasi
				change_religion = mother_akasik
				add_devastation = 15
			}
			akarat_area = {
				change_culture = far_akasi
				change_religion = mother_akasik
				add_devastation = 15
			}
			add_country_modifier = {
				name = crathanor_akasik_protected
				duration = 7300
			}
			400 = {
				if = {
					limit = {
						province_has_center_of_trade_of_level = 2
					}
					if = {
						limit = {
							province_has_center_of_trade_of_level = 3
						}
						ROOT = {
							add_dip_power = 100
						}
					}
					else = {
						add_center_of_trade_level = 1
					}
				}
			}
			402 = {
				if = {
					limit = {
						province_has_center_of_trade_of_level = 2
					}
					if = {
						limit = {
							province_has_center_of_trade_of_level = 3
						}
						ROOT = {
							add_dip_power = 100
						}
					}
					else = {
						add_center_of_trade_level = 1
					}
				}
			}
			if = {
				limit = { 
					isle_of_tef_area = {
						type = all
						owned_by = F23
					}
				}
				anb_add_accepted_culture_or_dip_power = {
					culture = tefori
					dip_reward = yes
				}
			}
		}
	}	
}

crathanor_missions_slot_5 = { 
	slot = 5 
	generic = no 
	ai = yes 
	has_country_shield = yes 
	potential = {
		OR = {
			tag = U17
			AND = {
				tag = F52
				was_tag = U17
			}
		}
	}	 
	 
	crathanor_edge_of_bulwar = { 
		icon = mission_market  
		position = 1
		
		provinces_to_highlight = {
			province_id = 516
			NOT = {
				AND = {
					development = 20
					has_trade_building_trigger = yes
					has_any_ongoing_construction = no
				}
			}
		}
		 
		trigger = { 
			516 = { 
				development = 20 
				has_trade_building_trigger = yes 
				has_any_ongoing_construction = no
			} 
			treasury = 100 
		} 
		 
		effect = {
			add_treasury = -100
			516 = { 
				add_permanent_province_modifier = {  
					name = crathanor_crathano_harbour
					duration = -1
				}
				add_building_construction = { 
					building = workshop 
					speed = 1 
					cost = 0 
				}
			}				
			add_mercantilism = 5 		 
		} 
	} 

	crathanor_monopolize_sapphire_trade = {
		icon = mission_early_game_buildings
		position = 2
		required_missions = {
			crathanor_edge_of_bulwar
		}
		
		provinces_to_highlight = {
			province_id = 452
			NOT = {
				development = 20
				base_production = 8
				has_trade_building_trigger = yes
			}
		}
		
		trigger = {
			num_of_light_ship = 10
			452 = {
				development = 20
				base_production = 8
				has_trade_building_trigger = yes
			}
		}
		
		effect = {
			add_mercantilism = 5
			452 = {
				add_permanent_province_modifier = {
					name = crathanor_complete_sapphire_authority 
					duration = -1
				}
			}
		}
	}
	
	crathanor_cursed_north = {
		icon = mission_ghost_town
		position = 4
		required_missions = {
			crathanor_monopolize_sapphire_trade 
			crathanor_empires_kingdoms_clans
		}
		
		provinces_to_highlight = {
			region = ourdia_region
			NOT = {
				country_or_non_sovereign_subject_holds = ROOT
			}
			has_any_goblin_pop_trigger = yes
		}
		
		trigger = {
			army_size = 25
			ourdia_region = {
				type = all
				country_or_non_sovereign_subject_holds = ROOT
				custom_trigger_tooltip = {
					tooltip = crathanor_no_goblin.tt
					NOT = { has_any_goblin_pop_trigger = yes }
				}
			}
			estate_loyalty = { 
				estate = estate_adventurers
				loyalty = 50
			}
			estate_loyalty = { 
				estate = estate_mages
				loyalty = 45
			}
		}
		
		effect = {
			daravans_folly_region = { 
				add_permanent_claim = ROOT
			}
		}
	}
	
	crathanor_crathanori_calm = {
		icon = mission_green_village
		position = 5
		required_missions = {
			crathanor_cursed_north
		}
		
		provinces_to_highlight = {
			OR = {
				AND = {
					region = daravans_folly_region
					NOT = { country_or_non_sovereign_subject_holds = ROOT}
				}
				AND = {
					province_id = 510
					NOT = { has_fort_building_trigger = yes }
					NOT = { has_coast_defense_building_trigger = yes }
					NOT = { country_or_non_sovereign_subject_holds = ROOT}
				}
				AND = {
					province_id = 451
					NOT = { has_fort_building_trigger = yes	}
					NOT = { has_coast_defense_building_trigger = yes }
					NOT = { country_or_non_sovereign_subject_holds = ROOT}
				}
			}
		}

		trigger = {
			if = { limit = { OR = { is_subject_of = F23 alliance_with = F23 } }
				daravans_folly_region = {
					type = all
					OR = {
						country_or_non_sovereign_subject_holds = ROOT
						country_or_non_sovereign_subject_holds = F23
					}
					NOT = {
						devastation = 1
					}
				}
				451 = {
					has_fort_building_trigger = yes
					has_coast_defense_building_trigger = yes
					OR = {
						country_or_non_sovereign_subject_holds = ROOT
						country_or_non_sovereign_subject_holds = F23
					}
				}
			}
			else = {
				daravans_folly_region = {
					type = all
					country_or_non_sovereign_subject_holds = ROOT
					NOT = {
						devastation = 1
					}
				}
				451 = {
					has_fort_building_trigger = yes
					has_coast_defense_building_trigger = yes
					country_or_non_sovereign_subject_holds = ROOT
				}
			}
			510 = {
				has_fort_building_trigger = yes
				has_coast_defense_building_trigger = yes
				country_or_non_sovereign_subject_holds = ROOT
			}
		}
		
		effect = {
			daravans_folly_region = {
				add_permanent_province_modifier = {
					name = crathanor_crathanori_calm_mod
					duration = -1
				}
			}	
		}				
	}
	
	crathanor_renovate_old_home = {
		icon = mission_clear_the_delta
		position = 7
		required_missions = {
			crathanor_ilatani_revival
		}
		
		provinces_to_highlight = {
			province_id = 365
			NOT = {
				development = 40
				has_coast_defense_building_trigger = yes
			}
		}
		
		trigger = {
			365 = {
				development = 40
				province_has_center_of_trade_of_level = 2
				has_coast_defense_building_trigger = yes
			}
		}
		
		effect = {
			365 = {
				if = {
					limit = {
						NOT = {
							province_has_center_of_trade_of_level = 3
						}
					}
					add_center_of_trade_level = 1
				}
				else = {
					busilar_area = {
						add_prosperity = 50	
					}	
				}
			}
			365 = {
				add_permanent_province_modifier = {
					name = crathanor_jewel_abtanus_dream
					duration = -1
				}
			}
		}
	}
	
	crathanor_cultural_capital = {
		icon = mission_market_place_with_asian_traders
		position = 8
		required_missions = {
			crathanor_renovate_old_home
		}
		
		provinces_to_highlight = { 
			AND = {
				province_id = 365
				development = 50
				NOT = {
					num_free_building_slots = 1
				}
			}
		}
		
		trigger = {
			OR = {
				medium_tolerance_gnomish_race_trigger = yes
				high_tolerance_dwarven_race_trigger = yes
			}
			365 = {
				development = 50
				NOT = {
					num_free_building_slots = 1
				}
			}
		}
		
		effect = {
			country_event = { id = flavor_crathanor.12 }
		}
	}
	
	crathanor_beating_heart_divenhal = {
		icon = mission_demand_garjat_fealty
		position = 10
		required_missions = {
			crathanor_cultural_capital
		}
		
		provinces_to_highlight = {
			OR = {
				province_id = 365
				province_id = 1296
			}
		}
		
		trigger = {
			365 = {
				AND = {
					development = 60
					higher_development_than = 8
				}
				NOT = {
					num_free_building_slots = 1
				}
				if = {
					limit = { has_dlc = "Leviathan" }
					num_of_times_expanded_infrastructure = 1
				}
			}
			if = { limit = { OR = { is_subject_of = F23 alliance_with = F23 } }
				1296 = {
					OR = {
						is_strongest_trade_power = ROOT
						is_strongest_trade_power = F23
					}
				}
			}
			else = {
				1296 = {
					is_strongest_trade_power = ROOT
				}
			}
		}
		
		effect = {
			365 = {
				remove_province_modifier = crathanor_jewel_abtanus_plan
				add_permanent_province_modifier = {
					name = crathanor_jewel_abtanus_reality
					duration = -1
				}
			}
			add_splendor = 400
			1296 = { # Eborthil
				add_trade_modifier = {
					who = ROOT
					duration = -1
					power = 25
					key = crathanor_beating_heart
				}
			}
			1303 = { # Dostanesck
				add_trade_modifier = {
					who = ROOT
					duration = -1
					power = 25
					key = crathanor_beating_heart
				}
			}
			601 = { # Bulwar
				add_trade_modifier = {
					who = ROOT
					duration = -1
					power = 25
					key = crathanor_beating_heart
				}
			}
			1312 = { # Bahar
				add_trade_modifier = {
					who = ROOT
					duration = -1
					power = 25
					key = crathanor_beating_heart
				}
			}
			1259 = { # Divenhal Gate
				add_trade_modifier = {
					who = ROOT
					duration = -1
					power = 25
					key = crathanor_beating_heart
				}
			}
			1305 = { # Mother's Sorrow
				add_trade_modifier = {
					who = ROOT
					duration = -1
					power = 25
					key = crathanor_beating_heart
				}
			}
			1309 = { # Brasan
				add_trade_modifier = {
					who = ROOT
					duration = -1
					power = 25
					key = crathanor_beating_heart
				}
			}			
		}
	}
}	
