country_decisions = {
	effelai_burn_hub = {
		major = yes
		ai_will_do = { #ai wont overload themselves with rebels
			factor = 1
			modifier = {
				factor = 0
				is_at_war = yes
			}
		}
		potential = {
			has_country_flag = effelai_burned_path
			NOT = {
				has_country_flag = effelai_is_burning
			}
			effelai_has_unburned_hub = yes
		}
		provinces_to_highlight = {
			is_effelai_network_hub = yes
			NOT = {
				has_province_modifier = effelai_hub_burned
			}
		}
		allow = {
			custom_trigger_tooltip = {
				tooltip = effelai_burn_hub_allow_trigger
				has_country_flag = effelai_burned_path
				OR = {
					AND = {
						ai = yes
						manpower = 5
						treasury = 250
					}
					AND = {
						NOT = {
							ai = yes
							has_country_flag = effelai_is_burning
						}
						any_owned_province = {
							num_of_units_in_province = {
								amount = 10
								type = artillery
								who = FROM
							}
							is_effelai_network_hub = yes
							NOT = {
								has_province_modifier = effelai_hub_burned
							}
							area_for_scope_province = {
								type = all
								owned_by = ROOT
							}
						}
					}
				}
			}
		}
		effect = {
			custom_tooltip = effelai_burn_hub_tt
			hidden_effect = {
				random_owned_province = {
					limit = {
						OR = {
							ROOT = {
								ai = yes
							}
							num_of_units_in_province = {
								amount = 10
								type = artillery
								who = FROM
							}
						}
						is_effelai_network_hub = yes
						NOT = {
							has_province_modifier = effelai_hub_burned
						}
					}
					set_province_flag = effelai_hub_burn_target
					if = {
						limit = {
							ROOT = {
								ai = no
							}
						}
						add_province_modifier = {
							name = effelai_hub_is_burning
							duration = -1
						}
						if = {
							limit = {
								ROOT = { has_country_flag = very_reduced_songservants }
							}
							effelai_bloom_burn_spawn_very_reduced_songservants = yes
						}
						else_if = {
							limit = {
								ROOT = { has_country_flag = reduced_songservants }
							}
							effelai_bloom_burn_spawn_reduced_songservants = yes
						}
						else = {
							effelai_bloom_burn_spawn_songservants = yes
						}
						ROOT = {
							set_country_flag = effelai_is_burning
							country_event = {
								id = effelai_bloom.431
								days = 45
							}
						}
					}
					else = { #ai gets to cheat 
						ROOT = {
							add_treasury = -500
							add_manpower = -5
							country_event = {
								id = effelai_bloom.435
							}
						}
					}
				}
				if = {
					limit = {
						tag = H67
						ai = no
					}
					change_variable = {
						which = RezankandHubsBurned
						value = 1
					}
				}
			}
		}
	}
	effelai_heal_hub = {
		major = yes
		potential = {
			has_country_flag = effelai_attuned_can_heal
			effelai_has_burned_hub = yes
		}
		allow = {
			custom_trigger_tooltip = {
				tooltip = effelai_can_heal_hub_tt
				has_country_flag = effelai_attuned_can_heal
				effelai_has_burned_hub = yes
			}
			adm_power = 50
			dip_power = 50
			mil_power = 50
		}
		provinces_to_highlight = {
			has_province_modifier = effelai_hub_burned
		}
		effect = {
			add_adm_power = -50
			add_dip_power = -50
			add_mil_power = -50
			custom_tooltip = effelai_heal_hub_tt
			hidden_effect = {
				1804 = {
					change_variable = {
						which = effelai_total_hubs_burned
						value = -1
					}
				}
				random_owned_province = {
					limit = {
						has_province_modifier = effelai_hub_burned
					}
					trigger_switch = {
						on_trigger = province_id
						2273 = { #East Effelai
							tswohvothamus_hub_zone = {
								effelai_bloom_heal_effect = yes
							}
						}
						2240 = {
							ainemuno_hub_zone = {
								effelai_bloom_heal_effect = yes
							}
						}
						2286 = {
							wohaiowh_hub_zone = {
								effelai_bloom_heal_effect = yes
							}
						}
						2302 = { #Dry Coast
							uumunkes_hub_zone = {
								effelai_bloom_heal_effect = yes
							}
						}
						2336 = {
							orothaua_hub_zone = {
								effelai_bloom_heal_effect = yes
							}
						}
						2267 = { #South Effelai
							muudand_hub_zone = {
								effelai_bloom_heal_effect = yes
							}
						}
						2377 = {
							skiswoh_hub_zone = {
								effelai_bloom_heal_effect = yes
							}
						}
						2375 = {
							tskeowoh_hub_zone = {
								effelai_bloom_heal_effect = yes
							}
						}
						2355 = { #West Effelai
							aneaurey_hub_zone = {
								effelai_bloom_heal_effect = yes
							} 
						}
						2350 = {
							tsiivoiuga_hub_zone = {
								effelai_bloom_heal_effect = yes
							}
						}
						2193 = { #Soruin
							rakionaastuy_hub_zone = {
								effelai_bloom_heal_effect = yes
							}
						}
						2199 = {
							aneuuam_hub_zone = {
								effelai_bloom_heal_effect = yes
							}
						}
						2204 = {
							senaane_hub_zone = {
								effelai_bloom_heal_effect = yes
							}
						}
						2212 = { #Leechdens
							tohamachucha_hub_zone = {
								effelai_bloom_heal_effect = yes
							}
						}
						2219 = {
							tihichi_hub_zone = {
								effelai_bloom_heal_effect = yes
							}
						}
						2225 = {
							nafahitoha_hub_zone = {
								effelai_bloom_heal_effect = yes
							}
						}
					}
				}
			}
		}
	}
	effelai_take_control_of_burning = { #non-aelantiri nation colonizes and moves to aelantir
		major = yes
		potential = {
			has_country_flag = effelai_wants_burned_path
			capital_scope = {
				OR = {
					continent = south_america
					continent = north_america
				}
			}
		}
		allow = {
			always = yes
		}
		effect = {
			clr_country_flag = effelai_wants_burned_path
			set_country_flag = effelai_burned_path
		}
	}
	effelai_begin_attuning = { #non-effelai nation colonizes and moves to effelai to attune
		major = yes
		potential = {
			has_country_flag = effelai_wants_attuned_path
			capital_scope = {
				is_effelai_network_province = yes
			}
		}
		allow = {
			always = yes
		}
		effect = {
			hidden_effect = {
				clr_country_flag = effelai_wants_attuned_path
				set_country_flag = effelai_attuned_path
				country_event = {
					id = effelai_bloom.301
					days = 95
				}
			}
		}
	}
}