namespace = anb_miscevents

country_event = {
	id = anb_miscevents.0
	title = anb_miscevents.0.t
	desc = anb_miscevents.0.d
	picture = EMPTY_eventPicture
	
	is_triggered_only = yes
	
	option = {
        name = anb_miscevents.0.a
		hidden_effect = { country_event = { id = anb_miscevents.16 } }
		custom_tooltip = anb_miscevents.0_tt
	}
	
	option = {
        name = anb_miscevents.0.b
	}
}


# #No Longer used
# #CountyToDuchy - vassal plea
# country_event = {
	# id = anb_miscevents.1
	# title = anb_miscevents.1.t
	# desc = anb_miscevents.1.d
	# picture = COURT_eventPicture

	# is_triggered_only = yes

	
	# option = {	#Let us hope they accept our rightful elevation
		# name = anb_miscevents.1.a
		# custom_tooltip = ct_anb_miscevents.1
		# if = {
			# limit = {
				# is_subject = yes
			# }
			# overlord = { country_event = { id = anb_miscevents.2 days = 7 } }
		# }
		# if = {
			# limit = {
				# is_part_of_hre = yes
				# is_subject = no
			# }
			# emperor = { country_event = { id = anb_miscevents.2 days = 7 } }
		# }
	# }
# }

# #CountyToDuchy - overlord response
# country_event = {
	# id = anb_miscevents.2
	# title = anb_miscevents.2.t
	# desc = anb_miscevents.2.d
	# picture = COURT_eventPicture

	# is_triggered_only = yes


	# option = {	#Of course, they've proven their worth
		# name = anb_miscevents.2.a
		# ai_chance = { 
			# factor = 20
			# modifier = {
				# factor = 3
				# ruler_has_personality = benevolent_personality
			# }
			# modifier = {
				# factor = 5
				# has_opinion = {
					# who = FROM
					# value = 140
				# }
			# }
		# }
		# FROM = { add_opinion = { who = ROOT modifier = opinion_countytoduchy_accept } }
		# custom_tooltip = ct_anb_miscevents.2a
		# add_prestige = -10
		
		# hidden_effect = {
			# FROM = { country_event = { id = anb_miscevents.3 days = 7 } }
		# }
		
	# }
	# option = {	#Oh I dont think so
		# name = anb_miscevents.2.b
		# ai_chance = { 
			# factor = 80
			# modifier = {
				# factor = 10
				# ruler_has_personality = malevolent_personality
			# }
		# }
		# FROM = { add_opinion = { who = ROOT modifier = opinion_countytoduchy_reject } }
		# custom_tooltip = ct_anb_miscevents.2b
		
		# hidden_effect = {
			# FROM = { country_event = { id = anb_miscevents.4 days = 7 } }
		# }
	# }
# }

# #CountyToDuchy - overlord says yes
# country_event = {
	# id = anb_miscevents.3
	# title = anb_miscevents.3.t
	# desc = anb_miscevents.3.d
	# picture = COURT_eventPicture

	# is_triggered_only = yes


	# option = {	#All hail the new Duchy of [CountryName]
		# name = anb_miscevents.3.a
		# hidden_effect = {
			# clr_country_flag = is_a_county
		# }
		# custom_tooltip = ct_anb_miscevents.3
		# add_prestige = 70
		# ROOT = { add_opinion = { who = FROM modifier = opinion_countytoduchy_accept } }
	# }
# }

# #CountyToDuchy - overlord says no
# country_event = {
	# id = anb_miscevents.4
	# title = anb_miscevents.4.t
	# desc = anb_miscevents.4.d
	# picture = COURT_eventPicture

	# is_triggered_only = yes

	
	# option = {	#Rejection?! First of all, how dare you...
		# name = anb_miscevents.4.a
		# custom_tooltip = ct_anb_miscevents.4
		# add_prestige = -10
		# #ROOT = { add_opinion = { who = FROM modifier = opinion_countytoduchy_reject } }
	# }
# }

# #CountyToDuchy - independent automatically becomes duke
# country_event = {
	# id = anb_miscevents.5
	# title = anb_miscevents.5.t
	# desc = anb_miscevents.5.d
	# picture = COURT_eventPicture

	# is_triggered_only = yes

	
	# option = {	#All hail the new Duchy of [CountryName]
		# name = anb_miscevents.5.a
		# hidden_effect = {
			# clr_country_flag = is_a_county
		# }
		# custom_tooltip = ct_anb_miscevents.3
		# add_prestige = 70
	# }
# }

#Redundant due to changes for Escann Colonization
# #To make countries fill out Escann and prevent blank spaces - tried making this a player-also thing, but for some reason it crashes for the player - AI dont have an issue though
# country_event = {
	# id =  anb_miscevents.6
	# title = anb_miscevents.6.t
	# desc = anb_miscevents.6.d
	# picture = COLONIZATION_eventPicture
	
	# trigger = {
		# any_owned_province = {
			# OR = {
				# superregion = escann_superregion
				# region = forlorn_vale_region
			# }
			# has_empty_adjacent_province = yes
		# }
		# current_age = age_of_absolutism
		# ai = yes
	# }

	# mean_time_to_happen = {
		# months = 60
		
		# modifier = {
			# factor = 0.5
			# capital_scope = { superregion = escann_superregion }
		# }
		# modifier = {
			# factor = 0.25
			# is_year = 1680
		# }
	# }
	
	# option = {
		# name = anb_miscevents.6.a
		# random_owned_province = {
			# limit = {
				# OR = {
					# superregion = escann_superregion
					# region = forlorn_vale_region
				# }
				# has_empty_adjacent_province = yes
			# }
			# random_empty_neighbor_province = {
				# create_colony = 1000
			# }
		# }
	# }
# }

#SpawnedColonistBoosts
country_event = {
	id =  anb_miscevents.7
	title = anb_miscevents.7.t
	desc = anb_miscevents.7.d
	picture = COLONIZATION_eventPicture
	
	is_triggered_only = yes
	
	trigger = {
	#	NOT = { has_country_modifier = strong_colonial_rush }
	}
	
#	immediate = { 
#		random_province = {
#			limit = { 
#				culture_group = ROOT
#			}
#			save_event_target_as = home_province
#		}
#		
#	}

	mean_time_to_happen = {
		days = 1
	}
	
	option = {
		name = anb_miscevents.7.a
		
		set_country_flag = aelantir_spawnable
		
		create_explorer = {
			tradition = 50
		}
		create_conquistador = {
			tradition = 50
		}
		add_country_modifier = { 
			name = strong_colonial_rush
			duration = 7300 #20 years
		}
		add_country_modifier = { 
			name = pioneer_rush
			duration = 18250 #50 years
		}
		
		remove_country_modifier = restructuring_administration
		
		#Make the newfound place your core, etc
		capital_scope = {
			# Give AI vision 2 provs out
			if = {
				limit = { owner = { ai = yes } }
				every_neighbor_province = {
					discover_country = ROOT
					every_neighbor_province = {
						discover_country = ROOT
					}
					every_empty_neighbor_province = {
						discover_country = ROOT
					}
				}
				every_empty_neighbor_province = {
					discover_country = ROOT
					every_neighbor_province = {
						discover_country = ROOT
					}
					every_empty_neighbor_province = {
						discover_country = ROOT
					}
				}
			}
			
			add_core = ROOT
			change_culture = ROOT
			change_religion = ROOT
			
			add_base_tax = 2
			add_base_production = 2
			add_base_manpower = 2
			
			if = {
				limit = { has_port = yes }
				build_to_forcelimit = {
					infantry = 0.7
					cavalry = 0.2
					artillery = 0.1
					heavy_ship = 0.2
					light_ship = 0.5
					transport = 0.3
				}
			}
			else = {
				build_to_forcelimit = {
					infantry = 0.7
					cavalry = 0.2
					artillery = 0.1
				}
			}
			
			if = {
				limit = {
					is_institution_enabled = feudalism
					any_province = {
							feudalism = 90 
							culture_group = ROOT
					}
				}
				add_institution_embracement = {
					which = feudalism
					value = 100
				}
			}
			if = {
				limit = {
					is_institution_enabled = renaissance
					any_province = {
							renaissance = 90 
							culture_group = ROOT
					}
				}
				add_institution_embracement = {
					which = renaissance
					value = 100
				}
			}
			if = {
				limit = {
					is_institution_enabled = new_world_i
					any_province = {
							new_world_i = 90 
							culture_group = ROOT
					}
				}
				add_institution_embracement = {
					which = new_world_i
					value = 100
				}
			}
			if = {
				limit = {
					is_institution_enabled = printing_press
					any_province = {
							printing_press = 90 
							culture_group = ROOT
					}
				}
				add_institution_embracement = {
					which = printing_press
					value = 100
				}
			}
			if = {
				limit = {
					is_institution_enabled = global_trade
					any_province = {
							global_trade = 90 
							culture_group = ROOT
					}
				}
				add_institution_embracement = {
					which = global_trade
					value = 100
				}
			}
			if = {
				limit = {
					is_institution_enabled = manufactories
					any_province = {
							manufactories = 90 
							culture_group = ROOT
					}
				}
				add_institution_embracement = {
					which = manufactories
					value = 100
				}
			}
			if = {
				limit = {
					is_institution_enabled = enlightenment
					any_province = {
							enlightenment = 90 
							culture_group = ROOT
					}
				}
				add_institution_embracement = {
					which = enlightenment
					value = 100
				}
			}
		}
		if = {
			limit = { capital_scope = { has_port = no } }
			random_owned_province = {
				limit = { has_port = yes }
				build_to_forcelimit = {
					heavy_ship = 0.2
					light_ship = 0.5
					transport = 0.3
				}
			}
		}
		#just in case they become corinite
		# ROOT = {
			# change_religion = event_target:home_province
		# }
		
		# if = {
			# limit = { 
				# capital_scope = {
					# OR = { 
						# continent = north_america 
						# continent = south_america
					# }
				# }
			# }
		# }
		
		#Make their first ruler a colonizer
		if = {
			limit = { ai = yes }
			set_ai_personality = {
				personality = ai_colonialist
				locked = yes
			}
		}
		
		if = {
			limit = {
				NOT = { has_idea_group = exploration_ideas }
			}
			add_idea_group = exploration_ideas
			add_idea = quest_for_the_new_world
			add_idea = colonial_ventures
			add_idea = overseas_exploration
		}

		hidden_effect = {
			country_event = { #new culture event, 10 years after their buff runs out
				id = colonial_culture.1
				days = 21900
			}
		}

	}
}


#SpawnedColonistBoosts - Adventurers
country_event = {
	id =  anb_miscevents.8
	title = anb_miscevents.8.t
	desc = anb_miscevents.8.d
	picture = COLONIZATION_eventPicture
	
	is_triggered_only = yes
	
	trigger = {
	#	NOT = { has_country_modifier = strong_colonial_rush }
	}
	
	immediate = { 
		
	}

	mean_time_to_happen = {
		days = 1
	}
	
	option = {
		name = anb_miscevents.8.a
		
		create_conquistador = {
			tradition = 50
		}
		add_government_power = {
			mechanic_type = anb_adventurer_unity
			power_type = adventurer_unity 
			value = 50
		}
		if = {
			limit = { NOT = { capital_scope = { continent = serpentspine } } }
			add_country_modifier = { 
				name = spawned_adventurer_boost
				duration = 7300 #20 years
			}
		}
		
		#Make the newfound place your core, etc
		capital_scope = {
			add_core = ROOT
			change_culture = ROOT
			#change_religion = event_target:home_province
			change_religion = ROOT
			
			if = {
				limit = { culture_group = dwarven }
				build_to_forcelimit = {
					infantry = 0.9
					artillery = 0.1
				}
			}
			else = {
				build_to_forcelimit = {
					infantry = 0.7
					cavalry = 0.2
					artillery = 0.1
				}
			}
			
			if = {
				limit = {
					is_institution_enabled = feudalism
					any_province = {
						feudalism = 90 
						culture_group = ROOT
					}
				}
				add_institution_embracement = {
					which = feudalism
					value = 100
				}
			}
			if = {
				limit = {
					is_institution_enabled = renaissance
					any_province = {
						renaissance = 90 
						culture_group = ROOT
					}
				}
				add_institution_embracement = {
					which = renaissance
					value = 100
				}
			}
			if = {
				limit = {
					is_institution_enabled = new_world_i
					any_province = {
							new_world_i = 90 
							culture_group = ROOT
					}
				}
				add_institution_embracement = {
					which = new_world_i
					value = 100
				}
			}
			if = {
				limit = {
					is_institution_enabled = printing_press
					any_province = {
							printing_press = 90 
							culture_group = ROOT
					}
				}
				add_institution_embracement = {
					which = printing_press
					value = 100
				}
			}
			if = {
				limit = {
					is_institution_enabled = global_trade
					any_province = {
							global_trade = 90 
							culture_group = ROOT
					}
				}
				add_institution_embracement = {
					which = global_trade
					value = 100
				}
			}
			if = {
				limit = {
					is_institution_enabled = manufactories
					any_province = {
							manufactories = 90 
							culture_group = ROOT
					}
				}
				add_institution_embracement = {
					which = manufactories
					value = 100
				}
			}
			if = {
				limit = {
					is_institution_enabled = enlightenment
					any_province = {
							enlightenment = 90 
							culture_group = ROOT
					}
				}
				add_institution_embracement = {
					which = enlightenment
					value = 100
				}
			}
		}

		#just in case they become corinite
		# ROOT = {
			# change_religion = event_target:home_province
		# }
		
		# if = {
			# limit = { 
				# capital_scope = {
					# OR = { 
						# continent = north_america 
						# continent = south_america
					# }
				# }
			# }
		# }

	}
}

# # Gov Reform Event
# country_event = {
	# id = anb_miscevents.9 
	# title = "anb_miscevents.9.t"
	# desc = "anb_miscevents.9.d"
	# picture = ELECTION_REPUBLICAN_eventPicture
	
	# is_triggered_only = yes
	
	# option = {
		# name = "anb_miscevents.9.a" #We need a Republic! 
		# ai_chance = { factor = 0 }
		# trigger = { 
			# NOT = { government = republic } 
			# NOT = { has_dlc = "Dharma" }
		# }
		# if = {
			# limit = { NOT = { government = republic } }
			# change_government = republic
		# }
		# set_legacy_government = administrative_republic
		# add_republican_tradition = 100
	# }
	# option = {
		# name = "anb_miscevents.9.b" #Form a Centralized Monarchy
		# ai_chance = { factor = 0 }
		# trigger = { 
			# NOT = { government = monarchy }
			# NOT = { has_dlc = "Dharma" }
		# }
		# if = {
			# limit = { NOT = { government = monarchy } }
			# change_government = monarchy
		# }
		# set_legacy_government = administrative_monarchy
		# add_legitimacy = 100
	# }
	# option = {
		# name = "anb_miscevents.9.c" #Elevate our leaders as a Theocracy 
		# ai_chance = { factor = 0 }
		# trigger = { 
			# NOT = { government = theocracy }
			# NOT = { has_dlc = "Dharma" }
		# }
		# if = {
			# limit = { NOT = { government = theocracy  } }
			# change_government = theocracy
		# }
		# set_legacy_government = theocratic_government
		# add_devotion = 100
	# }
	# option = {
		# name = "anb_miscevents.9.f" #Keep current government
		# ai_chance = { factor = 0 }
	# }
# }

# Make released adventurers become adventurers again
country_event = {
	id = anb_miscevents.10 
	title = anb_miscevents.10.t
	desc = anb_miscevents.10.d
	picture = ELECTION_REPUBLICAN_eventPicture
	
	is_triggered_only = yes
	
	trigger = {
		is_adventurer = yes
		is_revolutionary = no 
		NOT = { has_adventurer_reform = yes }
		NOT = { has_country_flag = adventurer_derived_government }
	}
	
	option = {
		name = anb_miscevents.10.a
		if = {
			limit = { NOT = { government = theocracy } }
			change_government = theocracy
		}
		if = {
			limit = { capital_scope = { continent = serpentspine } }
			add_government_reform = dwarovar_adventurer_reform
		}
		else_if = {
			limit = {
				capital_scope = {
					OR = {
						continent = north_america
						continent = south_america
					}
				}
			}
			add_government_reform = aelantir_adventurer_reform
		}
		else = {
			add_government_reform = adventurer_reform
		}
		clr_country_flag = adventurer_derived_government
	}
}

# Make released temples become theocracies again
country_event = {
	id = anb_miscevents.11 
	title = anb_miscevents.11.t
	desc = anb_miscevents.11.d
	picture = RELIGION_eventPicture
	
	is_triggered_only = yes
	
	trigger = {
		is_temple = yes
		NOT = { has_reform = leading_clergy_reform }
		is_revolutionary = no
		# or they get stuck in a loop converting to rev repub and back in revolution
	}
	
	option = {
		name = anb_miscevents.11.a
		if = {
			limit = { NOT = { government = theocracy } }
			change_government = theocracy
		}
		add_government_reform = leading_clergy_reform
	}
}

##Colonist stuck on settlement growth fix
country_event = {
	id = anb_miscevents.12
	title = anb_miscevents.12.t
	desc = anb_miscevents.12.d
	picture = HUIZTILOPOCHTLI_eventPicture
	
	hidden = yes
	
	mean_time_to_happen = {
		months = 24
	}
	
	trigger = {
		#has_country_flag = avoids_colonist_settlement_growth
		num_of_colonists = 1
		OR = {
			NOT = { government = native }
			has_institution = feudalism
		}
		OR = {
			capital_scope = { has_colonist = yes } #This lower intensity and AI like putting their settler in the capital
			AND = {
				NOT = { colony = 1 }
				any_owned_province = {
					has_colonist = yes
					is_city = yes
				}
			}
		}
		ai = yes
		has_dlc = "Dharma"
	}
	
	option = {
		name = debug.6.a
		
		every_owned_province = {
			limit = { has_colonist = yes is_city = yes }
			cancel_construction = yes
			owner = { add_treasury = 48 } # Refund for the settlement growth
		}
		if = {	#Create a colony and don't take their colonist away if they need it
			limit = { 
				any_owned_province = { is_city = yes has_empty_adjacent_province = yes } #Don't take away their colonists if they need to make a colony
			}
			random_owned_province = {
				limit = { is_city = yes has_empty_adjacent_province = yes }
				if = {
					limit = { ROOT = { capital_scope = { OR = { superregion = escann_superregion region = the_borders_region region = west_forbidden_plains_region region = east_forbidden_plains_region } } } }
					random_empty_neighbor_province = {
						limit = {		#Don't colonize 0 0 0
							development = 3
							NOT = { has_province_modifier = cant_colonize }
						}
						create_colony = 400	#Boosted or this colony will finish slowly as the AI doesn't send their colonists
					}
				}
				else = {
					random_empty_neighbor_province = {
						limit = {
							development = 3
							NOT = { has_province_modifier = cant_colonize }
							NOT = { superregion = escann_superregion }
							NOT = { region = west_forbidden_plains_region }	#No plains dwarves
						}
						create_colony = 300	#Boosted or this colony will finish slowly as the AI doesn't send their colonists
					}
				}
			}
		}
		else_if = { #colonial frontiers stop AI doing colonizing with colonists, take them away
			limit = {
				any_owned_province = {
					has_construction = siberian
				}
			}
			add_country_modifier = {
				name = dont_colonize_but_migrate
				duration = 1825
			}
		}
		else_if = { #Check if they still need their colonists
			limit = {
				NOT = { colony = 1 }
				NOT = { any_owned_province = { is_colony = yes } }
			}
			if = { #turn off the colonist if all of escann is colonized
				limit = {
					capital_scope = {
						superregion = escann_superregion
					}
				}
				if = {
					limit = { 
						escann_superregion = {
							is_city = yes
							type = all
						}
					}
					add_country_modifier = {	#Take away their colonist for the rest of the game
						name = dont_colonize_but_migrate
						duration = -1
					}
				}
			}
			else_if = { #Turn off the colonist if all the serpentspine is colonized
				limit = {
					capital_scope = {
						continent = serpentspine
					}
				}
				if = {
					limit = { 
						serpentspine = {
							is_city = yes
							type = all
						}
					}
					add_country_modifier = {	#Take away their colonist for the rest of the game
						name = dont_colonize_but_migrate
						duration = -1
					}
				}
			}
			else_if = {
				limit = { any_owned_province = { has_port = yes } }
				add_country_modifier = {	#Take away their colonist a year
					name = dont_colonize_temp
					duration = 365
				}
			}
			else = {
				add_country_modifier = {	#Catch all to take away their colonist if they're not coastal
					name = dont_colonize_but_migrate
					duration = 1825
				}
			}
		}
	}
}

##Cleaning province
province_event = {
	id = anb_miscevents.13
	title = anb_miscevents.13.t
	desc = anb_miscevents.13.d
	picture = HUIZTILOPOCHTLI_eventPicture
	
	hidden = yes
	is_triggered_only = yes
	
	trigger = {
		has_province_modifier = cant_colonize
	}
	
	option = {
		name = debug.6.a
		
		if = {
			limit = { 
				OR = { owner = { ai = no } is_city = yes }
			}
			remove_province_modifier = cant_colonize
		}
		else = {
			add_colonysize = -1000
		}
	}
}

country_event = {
	id = anb_miscevents.14
	title = anb_miscevents.14.t
	desc = anb_miscevents.14.d
	picture = ARTWORK_eventPicture
	
	hidden = yes
	
	mean_time_to_happen = {
		months = 10
	}
	
	trigger = {
		has_government_attribute = ai_migration
		NOT = { num_of_cities = 2 }
		capital_scope = {
			NOT = { has_province_flag = sent_expedition_@ROOT }
			NOT = {
				OR = {
					has_terrain = dwarven_hold
					has_terrain = dwarven_hold_surface
				}
			}
			NOT = { devastation = 5 }
		}
		ai = yes
	}
	
	option = {
        name = anb_miscevents.14.a
        ai_chance = { factor = 100 }
		capital_scope = {
			add_devastation = 6
		}
	}
}

country_event = {
	id = anb_miscevents.15
	title = anb_miscevents.15.t
	desc = anb_miscevents.15.d
	picture = ARTWORK_eventPicture
	
	hidden = yes
	is_triggered_only = yes
	
	trigger = {
		ai = yes
	}
	
	option = {
        name = anb_miscevents.15.a
        ai_chance = { factor = 100 }
		change_estate_land_share = {
			estate = all
			share = -2.5
		}
	}
}

country_event = {
	id = anb_miscevents.16
	title = anb_miscevents.16.t
	desc = anb_miscevents.16.d
	picture = EMPTY_eventPicture
	
	is_triggered_only = yes
	hidden = yes
	
	option = {
        name = anb_miscevents.0.a
		hidden_effect = { country_event = { id = anb_miscevents.0 } }
	}
}

#Remove exploration ideas from Ynn settlers once fully colonized
country_event = {
	id = anb_miscevents.17
	title = none
	desc = none
	picture = none
	hidden = yes

	fire_only_once = yes

	trigger = {
		NOT = { ynn_superregion = { is_empty = yes } }
	}

	mean_time_to_happen = {
		months = 120
	}

	option = {
		name = anb_miscevents.17.a
		ai_chance = { factor = 100 }
		every_country = {
			limit = {
				capital_scope = { superregion = ynn_superregion }
				NOT = { culture_is_ruinborn = yes }
				ai = yes
				has_idea_group = exploration_ideas
			}
			
			#refund the cost as if cancelling it manually because I'm nice like that
			trigger_switch = {
				on_trigger = has_idea
				global_empire = { add_dip_power = 280 }
				free_colonies = { add_dip_power = 240 }
				vice_roys = { add_dip_power = 200 }
				land_of_opportunity = { add_dip_power = 160 }
				overseas_exploration = { add_dip_power = 120 }
				colonial_ventures = { add_dip_power = 80 }
				quest_for_the_new_world = { add_dip_power = 40 }
			}
			remove_idea_group = exploration_ideas
		}
	}
}

#Remove exploration ideas from Trollsbay settlers once fully colonized
country_event = {
	id = anb_miscevents.18
	title = none
	desc = none
	picture = none
	hidden = yes

	fire_only_once = yes

	trigger = {
		NOT = { trollsbay_region = { is_empty = yes } }
	}

	mean_time_to_happen = {
		months = 120
	}

	option = {
		name = anb_miscevents.18.a
		ai_chance = { factor = 100 }
		every_country = {
			limit = {
				capital_scope = { region = trollsbay_region }
				NOT = { culture_is_ruinborn = yes }
				ai = yes
				has_idea_group = exploration_ideas
			}

			#refund the cost as if cancelling it manually because I'm nice like that
			trigger_switch = {
				on_trigger = has_idea
				global_empire = { add_dip_power = 280 }
				free_colonies = { add_dip_power = 240 }
				vice_roys = { add_dip_power = 200 }
				land_of_opportunity = { add_dip_power = 160 }
				overseas_exploration = { add_dip_power = 120 }
				colonial_ventures = { add_dip_power = 80 }
				quest_for_the_new_world = { add_dip_power = 40 }
			}
			remove_idea_group = exploration_ideas
		}
	}
}

#Faction Influence Menu
country_event = {
	id = anb_miscevents.19
	title = anb_miscevents.19.title
	desc = anb_miscevents.19.desc
	picture = CONQUEST_eventPicture

	is_triggered_only = yes

	immediate = {
		hidden_effect = {
			set_country_flag = faction_menu_open_flag
			set_country_flag = faction_menu_used_flag
		}
	}

	# Marchers
	option = {
		name = anb_miscevents.19.a
		trigger = { has_faction = adv_marchers }
		add_mil_power = -25
		add_country_modifier = { name = anb_adv_marchers_influence duration = 1825 }
	}
	option = {
		name = anb_miscevents.19.b
		trigger = { has_faction = adv_pioneers }
		add_dip_power = -25
		add_country_modifier = { name = anb_adv_pioneers_influence duration = 1825 }
	}
	option = {
		name = anb_miscevents.19.c
		trigger = { has_faction = adv_fortune_seekers }
		add_adm_power = -25
		add_country_modifier = { name = anb_adv_fortune_seekers_influence duration = 1825 }
	}
	option = {
		name = anb_miscevents.19.g
		trigger = { has_faction = tec_brilliance }
		add_adm_power = -25
		add_country_modifier = { name = anb_tec_brilliance_influence duration = 1825 }
	}
	option = {
		name = anb_miscevents.19.h
		trigger = { has_faction = tec_technomancy }
		add_dip_power = -25
		add_country_modifier = { name = anb_tec_technomancy_influence duration = 1825 }
	}
	option = {
		name = anb_miscevents.19.i
		trigger = { has_faction = aelnar_blaiddtar }
		add_mil_power = -25
		add_country_modifier = { name = anb_aelnar_blaiddtar_influence duration = 1825 }
	}
	option = {
		name = anb_miscevents.19.j
		trigger = { has_faction = aelnar_cymscal }
		add_dip_power = -25
		add_country_modifier = { name = anb_aelnar_cymscal_influence duration = 1825 }
	}
	option = {
		name = anb_miscevents.19.k
		trigger = { has_faction = aelnar_suir }
		add_adm_power = -25
		add_country_modifier = { name = anb_aelnar_suir_influence duration = 1825 }
	}
	option = {
		name = anb_miscevents.19.r
		trigger = { has_faction = burning_spear }
		add_adm_power = -25
		add_country_modifier = { name = anb_burning_spear_influence duration = 1825 }
	}
	option = {
		name = anb_miscevents.19.s
		trigger = { has_faction = verdant_bliss }
		add_mil_power = -25
		add_country_modifier = { name = anb_verdant_bliss_influence duration = 1825 }
	}
	option = {
		name = anb_miscevents.19.t
		trigger = { has_faction = tiger_bane }
		add_mil_power = -25
		add_country_modifier = { name = anb_tiger_bane_influence duration = 1825 }
	}
	option = {
		name = anb_miscevents.19.u
		trigger = { has_faction = raging_blizzard }
		add_mil_power = -25
		add_country_modifier = { name = anb_raging_blizzard_influence duration = 1825 }
	}
	option = {
		name = anb_miscevents.19.v
		trigger = { has_faction = vine_tearer }
		add_mil_power = -25
		add_country_modifier = { name = anb_vine_tearer_influence duration = 1825 }
	}
	option = {
		name = anb_miscevents.19.w
		trigger = { has_faction = rosen_rider }
		add_mil_power = -25
		add_country_modifier = { name = anb_rosen_rider_influence duration = 1825 }
	}
	option = {
		name = anb_miscevents.19.x
		trigger = { has_faction = vilaechi }
		add_adm_power = -25
		add_country_modifier = { name = anb_vilaechi_influence duration = 1825 }
	}
	option = {
		name = anb_miscevents.19.y
		trigger = { has_faction = rosrholych }
		add_dip_power = -25
		add_country_modifier = { name = anb_rosrholych_influence duration = 1825 }
	}
	option = {
		name = anb_miscevents.19.z
		trigger = { has_faction = drominar }
		add_mil_power = -25
		add_country_modifier = { name = anb_drominar_influence duration = 1825 }
	}
	option = {
		name = anb_miscevents.19.aa
		trigger = { has_faction = nl_cooperatists }
		add_adm_power = -25
		add_country_modifier = { name = anb_nl_cooperatists_influence duration = 1825 }
	}
	option = {
		name = anb_miscevents.19.ab
		trigger = { has_faction = nl_trade_barons }
		add_dip_power = -25
		add_country_modifier = { name = anb_nl_trade_barons_influence duration = 1825 }
	}
	option = {
		name = anb_miscevents.19.ac
		trigger = { has_faction = nl_old_guard }
		add_mil_power = -25
		add_country_modifier = { name = anb_nl_old_guard_influence duration = 1825 }
	}
	option = {
		name = anb_miscevents.19.ad
		trigger = { has_faction = inf_ildran_hedine }
		add_adm_power = -25
		add_country_modifier = { name = anb_inf_ildran_hedine_influence duration = 1825 }
	}
	option = {
		name = anb_miscevents.19.ae
		trigger = { has_faction = inf_triad }
		add_dip_power = -25
		add_country_modifier = { name = anb_inf_triad_influence duration = 1825 }
	}
	option = {
		name = anb_miscevents.19.af
		trigger = { has_faction = inf_kaz_mesner }
		add_mil_power = -25
		add_country_modifier = { name = anb_inf_kaz_mesner_influence duration = 1825 }
	}
	option = {
		name = anb_miscevents.19.ag
		trigger = { has_faction = mykx_xhazobkult }
		add_adm_power = -25
		add_country_modifier = { name = anb_mykx_xhazobkult_influence duration = 1825 }
	}
	option = {
		name = anb_miscevents.19.ah
		trigger = { has_faction = bandit_kingdom_havoric_homesteaders }
		add_adm_power = -25
		add_country_modifier = { name = anb_bandit_kingdom_havoric_homesteaders_influence duration = 1825 }
	}
	option = {
		name = anb_miscevents.19.ai
		trigger = { has_faction = bandit_kingdom_falah_poachers }
		add_dip_power = -25
		add_country_modifier = { name = anb_bandit_kingdom_falah_poachers_influence duration = 1825 }
	}
	option = {
		name = anb_miscevents.19.aj
		trigger = { has_faction = bandit_kingdom_bandit_captains }
		add_mil_power = -25
		add_country_modifier = { name = anb_bandit_kingdom_bandit_captains_influence duration = 1825 }
	}
	option = {
		name = anb_miscevents.19.ak
		trigger = { has_faction = bandit_kingdom_ynnic_loyalists }
		add_mil_power = -25
		add_country_modifier = { name = anb_bandit_kingdom_ynnic_loyalists_influence duration = 1825 }
	}
	option = {
		name = anb_miscevents.19.al
		trigger = { has_faction = tec_mechanists }
		add_mil_power = -25
		add_country_modifier = { name = anb_tec_mechanists_influence duration = 1825 }
	}
	option = {
		name = anb_miscevents.19.am
		trigger = { has_faction = temples }
		add_mil_power = -25
		add_country_modifier = { name = anb_temples_influence duration = 1825 }
	}
	option = {
		name = anb_miscevents.19.an
		trigger = { has_faction = enuchs }
		add_dip_power = -25
		add_country_modifier = { name = anb_enuchs_influence duration = 1825 }
	}
	option = {
		name = anb_miscevents.19.ao
		trigger = { has_faction = bureaucrats }
		add_adm_power = -25
		add_country_modifier = { name = anb_bureaucrats_influence duration = 1825 }
	}
	option = {
		name = anb_miscevents.19.ap
		trigger = { has_faction = mr_aristocrats }
		add_mil_power = -25
		add_country_modifier = { name = anb_mr_aristocrats_influence duration = 1825 }
	}
	option = {
		name = anb_miscevents.19.aq
		trigger = { has_faction = mr_traders }
		add_dip_power = -25
		add_country_modifier = { name = anb_mr_traders_influence duration = 1825 }
	}
	option = {
		name = anb_miscevents.19.ar
		trigger = { has_faction = mr_guilds }
		add_adm_power = -25
		add_country_modifier = { name = anb_mr_guilds_influence duration = 1825 }
	}
	option = {
		name = anb_miscevents.19.as
		trigger = { has_faction = rr_jacobins }
		add_mil_power = -25
		add_country_modifier = { name = anb_rr_jacobins_influence duration = 1825 }
	}
	option = {
		name = anb_miscevents.19.at
		trigger = { has_faction = rr_royalists }
		add_adm_power = -25
		add_country_modifier = { name = anb_rr_royalists_influence duration = 1825 }
	}
	option = {
		name = anb_miscevents.19.au
		trigger = { has_faction = rr_girondists }
		add_dip_power = -25
		add_country_modifier = { name = anb_rr_girondists_influence duration = 1825 }
	}
	option = {
		name = anb_miscevents.19.av
		trigger = { has_faction = pr_buccaneers }
		add_adm_power = -25
		add_country_modifier = { name = anb_pr_buccaneers_influence duration = 1825 }
	}
	option = {
		name = anb_miscevents.19.aw
		trigger = { has_faction = pr_smugglers }
		add_dip_power = -25
		add_country_modifier = { name = anb_pr_smugglers_influence duration = 1825 }
	}
	option = {
		name = anb_miscevents.19.ax
		trigger = { has_faction = pr_captains }
		add_mil_power = -25
		add_country_modifier = { name = anb_pr_captains_influence duration = 1825 }
	}
	option = {
		name = anb_miscevents.19.ay
		highlight = yes
		clr_country_flag = faction_menu_used_flag
	}

	after = {
		hidden_effect = {
			clr_country_flag = faction_menu_open_flag
		}
	}
}

province_event = {
	id = anb_miscevents.20
	title = anb_miscevents.20.t
	desc = anb_miscevents.20.d
	picture = EMPTY_eventPicture
	
	hidden = yes
	is_triggered_only = yes
	
	trigger = {
		owner = {
			culture_group = hobgoblin
		}
		OR = {
			has_province_flag = command_wolf_warcamp
			has_province_flag = command_boar_warcamp
			has_province_flag = command_lion_warcamp
			has_province_flag = command_tiger_warcamp
			has_province_flag = command_elephant_warcamp
			has_province_flag = command_dragon_warcamp
			has_province_flag = command_azepyanunin_warcamp
			has_province_flag = command_kintonan_warcamp
			has_province_flag = command_ikaniwagain_warcamp
		}
	}
	option = {
        name = anb_miscevents.20.a
		if = {
			limit = { has_province_flag = command_wolf_warcamp }
			add_province_modifier = {
				name = command_wolf_warcamp
				duration = -1
			}
		}
		else_if = {
			limit = { has_province_flag = command_boar_warcamp }
			add_province_modifier = {
				name = command_boar_warcamp
				duration = -1
			}
		}
		else_if = {
			limit = { has_province_flag = command_lion_warcamp }
			add_province_modifier = {
				name = command_lion_warcamp
				duration = -1
			}
		}
		else_if = {
			limit = { has_province_flag = command_tiger_warcamp }
			add_province_modifier = {
				name = command_tiger_warcamp
				duration = -1
			}
		}
		else_if = {
			limit = { has_province_flag = command_elephant_warcamp }
			add_province_modifier = {
				name = command_elephant_warcamp
				duration = -1
			}
		}
		else_if = {
			limit = { has_province_flag = command_dragon_warcamp }
			add_province_modifier = {
				name = command_dragon_warcamp
				duration = -1
			}
		}
		else_if = {
			limit = { has_province_flag = command_azepyanunin_warcamp }
			add_province_modifier = {
				name = command_azepyanunin_warcamp
				duration = -1
			}
		}
		else_if = {
			limit = { has_province_flag = command_kintonan_warcamp }
			add_province_modifier = {
				name = command_kintonan_warcamp
				duration = -1
			}
		}
		else_if = {
			limit = { has_province_flag = command_ikaniwagain_warcamp }
			add_province_modifier = {
				name = command_ikaniwagain_warcamp
				duration = -1
			}
		}
	}
}

country_event = {
	id = anb_miscevents.21
	title = anb_miscevents.21.t
	desc = anb_miscevents.21.d
	picture = EMPTY_eventPicture
	
	hidden = yes
	is_triggered_only = yes
	
	trigger = {
		has_country_modifier = corinite_during_active_league_war
		NOT = { is_in_league_war = yes }
	}
	
	option = {
        name = anb_miscevents.21.a
		remove_country_modifier = corinite_during_active_league_war
	}
}

# country setup event for aelantir/adventurer spawnables
country_event = {
	id = anb_miscevents.22
	title = anb_miscevents.22.t
	desc = anb_miscevents.22.d
	picture = EMPTY_eventPicture
	
	hidden = yes
	is_triggered_only = yes
	
	immediate = {
		hidden_effect = {
			country_event = { id = anbennar_setup.9 } # grant racial admin/mil

			country_event = { id = race_setup_events.1 } #Player
			country_event = { id = race_setup_events.2 } #AI
			country_event = { id = race_setup_events.6 } #Player
			country_event = { id = racial_modifiers.7 } #AI
			country_event = { id = race_setup_events.19 } # fix tolerances on new land

			if = {
				limit = {
					monstrous_culture = yes
					NOT = { has_country_flag = no_longer_monstrous }
				}
				add_country_modifier = { name = monstrous_nation duration = -1 }
			}
			# grant monstrous country modifier

			country_event = { id = monstrous.100 days = 1 } # setup monstrous opinion

			#Pick Holy Order
			if = {
				limit = { religion = corinite }
				country_event = {
					id = corinite.300
					days = 7
				}
			}

			if = {
				limit = {
					tag = H66 #Jaherian Exempalrs
				}
				set_country_flag = rezankand_jaherian_landing_flag
			}


			#AI Tolerances
			if = {
				limit = { 
					OR = {
						tag = H31	#Zurzumexia
						tag = H36	#Valorpoint
						tag = G91	#Isobelin
						tag = H54	#West Tipney
						tag = H66	#Jaherian Exemplars
						tag = H39	#Ozgarom
					}
				}
				change_variable = {
					which = ruinborn_race_tolerance_ai
					value = 100
				}
			}
			else_if = {
				limit = { 
					OR = {
						tag = H35	#Corinsfield
						tag = H38	#Zanlib
						tag = H42	#Onyx Legion
					}
				}
				subtract_variable = {
					which = ruinborn_race_tolerance_ai
					value = 100
				}
			}

			update_ruler_racial_flag = yes
			update_heir_racial_flag = yes
			update_consort_racial_flag = yes
		}

	}

	option = {
		name = anb_miscevents.22.a
	}
}	
