
#Country Name: Please see filename.

graphical_culture = asiangfx

color = { 20  10  210 }



historical_idea_groups = {
	economic_ideas
	offensive_ideas
	influence_ideas
	defensive_ideas	
	administrative_ideas	
	trade_ideas
	quality_ideas
	innovativeness_ideas
}

historical_units = {
	raheni_1_dhujati_riders
	raheni_1_raheni_footsoldier
	raheni_5_nadimraj_infantry
	raheni_6_nadimraj_cavalry
	raheni_9_reformed_nadimraj_infantry
	raheni_10_stampede_cavalry
	raheni_12_khedarid_infantry
	raheni_14_ghavaanaj_elephant_lords
	raheni_19_ghankedhen_musketeers
	raheni_18_reformed_ghavaanaj_elephant_lords
	raheni_23_nadimraj_musketeers
	raheni_23_raheni_dragoons
	raheni_26_raheni_rifle
	raheni_28_elephant_cannons
	raheni_30_nadimraj_rifles
}

monarch_names = {

	#Raheni, Hobgoblin, and Yan Names - Should probably be trimmed
	"Jassa Ahuwalia #0" = 10
	"Lahina #0" = 10
	"Ranjit #0" = 10
	"Bhag #0" = 10
	"Kharak #0" = 10
	"Duleep #0" = 10
	"Fateh #0" = 10
	"Maha #0" = 10
	"Sobha #0" = 10
	"Narnak #0" = 10
	"Ram #0" = 10
	"Arjan #0" = 10
	"Gobind #0" = 10
	"Rai #0" = 10
	"Krishan #0" = 10
	"Bahadur #0" = 10
	"Sardar Badar #0" = 10
	"Balbir #0" = 10
	"Bhalla #0" = 10
	"Daya #0" = 10
	"Gahunia #0" = 10
	"Gian #0" = 10
	"Nihang #0" = 10
	"Granth #0" = 10
	"Bhai Bachittar #0" = 10
	"Himmat #0" = 10
	"Hoora #0" = 10
	"Ishnar #0" = 10
	"Jhol #0" = 10
	"Jhotti #0" = 10
	"Mokham #0" = 10
	"Nand #0" = 10
	"Parmanand #0" = 10
	"Rajsingh #0" = 10
	"Sanlib #0" = 10
	"Sardul #0" = 10
	"Shabeg #0" = 10
	"Shergill #0" = 10
	"Sodhi #0" = 10
	"Sohal #0" = 10
	"Tara #0" = 10
	"Udasi #0" = 10
	"Angad #0" = 10
	"Amar #0" = 10
	"Lohaar #0" = 10
	"Dharem #0" = 10
	"Fakir #0" = 10
	"Ranjor #0" = 10
	"Ajit #0" = 10
	"Amar Dasi #0" = 10
	"Amir #0" = 10
	"Arjun #0" = 10
	"Atar #0" = 10
	"Basawa #0" = 10
	"Bhagwant #0" = 10
	"Bhaimani #0" = 10
	"Budh #0" = 10
	"Chand #0" = 10
	"Charat #0" = 10
	"Damodar #0" = 10
	"Dasu #0" = 10
	"Datu #0" = 10
	"Dayaram #0" = 10
	"Didar #0" = 10
	"Farid #0" = 10
	"Gurdita #0" = 10
	"Hargobind #0" = 10
	"Hari #0" = 10
	"Har Krishan #0" = 10
	"Har Rai #0" = 10
	"Jai Ram #0" = 10
	"Jetha #0" = 10
	"Jujhar #0" = 10
	"Kalyan #0" = 10
	"Kapur #0" = 10
	"Kehar #0" = 10
	"Khushal #0" = 10
	"Lahna #0" = 10
	"Lakhmichand #0" = 10
	"Laxman #0" = 10
	"Mahadev #0" = 10
	"Mohan #0" = 10
	"Mohri #0" = 10
	"Nanak #0" = 10
	"Narayan #0" = 10
	"Nodha #0" = 10
	"Partap #0" = 10
	"Pheru #0" = 10
	"Prithichand #0" = 10
	"Prithvi #0" = 10
	"Ram Rai #0" = 10
	"Sahdev #0" = 10
	"Shamsher #0" = 10
	"Sher #0" = 10
	"Srichand #0" = 10
	"Tegh Bahadur #0" = 10
	"Tej Bhan #0" = 10
	"Thakur #0" = 10
	"Zorawar #0" = 10
	"Amihiku #0" = 10
	"Artuko #0" = 10
	"Atkuro #0" = 10
	"Bishingo #0" = 10
	"Bochiro #0" = 10
	"Carg #0" = 10
	"Clenzo #0" = 10
	"Deaku #0" = 10
	"Dizhiko #0" = 10
	"Dizuwon #0" = 10
	"Dramkoro #0" = 10
	"Elgoji #0" = 10
	"Faiko #0" = 10
	"Fazato #0" = 10
	"Fazimitzu #0" = 10
	"Fazoku #0" = 10
	"Fezuko #0" = 10
	"Fraizhi #0" = 10
	"Gaxami #0" = 10
	"Gezzingo #0" = 10
	"Ghukorai #0" = 10
	"Gramziko #0" = 10
	"Horozuke #0" = 10
	"Iztue #0" = 10
	"Jadahiro #0" = 10
	"Jonozuke #0" = 10
	"Kaburo #0" = 10
	"Koburo #0" = 10
	"Krenzo #0" = 10
	"Krirgi #0" = 10
	"Kyoizi #0" = 10
	"Mekuro #0" = 10
	"Mekuwon #0" = 10
	"Moguwon #0" = 10
	"Nagohei #0" = 10
	"Plakzuo #0" = 10
	"Qirota #0" = 10
	"Rozuo #0" = 10
	"Sitzuako #0" = 10
	"Vitiro #0" = 10
	"Vragori #0" = 10
	"Yojimbo #0" = 10
	"Yuto #0" = 10
	"Zaffate #0" = 10
	"Zoburu #0" = 10
	"Zomazu #0" = 10
	"Zonkuro #0" = 10
	"Zurshin #0" = 10
	"Zuzak #0" = 10
	"Zyu #0" = 10
	"Zhanji #0" = 10
	"Zhanjun #0" = 10
	"Zhanyong #0" = 10
	"Zhanyin #0" = 10
	"Zhanshan #0" = 10
	"Zhangang #0" = 10
	"Zhan'ao #0" = 10
	"Zhankai #0" = 10
	"Zhanyan #0" = 10
	"Jianrui #0" = 10
	"Jianlin #0" = 10
	"Jianti #0" = 10
	"Jianze #0" = 10
	"Jianjun #0" = 10
	"Jianpei #0" = 10
	"Jianji #0" = 10
	"Youji #0" = 10
	"Youtang #0" = 10
	"Youwan #0" = 10
	"Youlun #0" = 10
	"Youbing #0" = 10
	"Youyun #0" = 10
	"Youheng #0" = 10
	"Youkai #0" = 10
	"Houzhao #0" = 10
	"Houwei #0" = 10
	"Houxi #0" = 10
	"Houcong #0" = 10
	"Zairui #0" = 10
	"Zaihou #0" = 10
	"Yiling #0" = 10
	"Yijun #0" = 10
	"Yiliu #0" = 10
	"Changluo #0" = 10
	"Changhao #0" = 10
	"Changyin #0" = 10
	"Changbo #0" = 10
	"Youxiao #0" = 10
	"Youmo #0" = 10
	"Youjian #0" = 10
	"Youyi #0" = 10
	"Youshan #0" = 10
	"Ciran #0" = 10
	"Ciyu #0" = 10
	"Cijiong #0" = 10
	"Ciheng #0" = 10
	"Cizhao #0" = 10
	"Cican #0" = 10
	"Shangbing #0" = 10
	"Shanglie #0" = 10
	"Shangyi #0" = 10
	"Shanghong #0" = 10
	"Shenzhong #0" = 10
	"Panlong #0" = 10
	"Youguang #0" = 10
	"Weizhen #0" = 10
	"Shisheng #0" = 10
	"Qichang #0" = 10
	"Hongdao #0" = 10
	"Nanying #0" = 10
	"Shaozong #0" = 10
	"Peng #0" = 10
	"Wenshi #0" = 10
	"Liangxiang #0" = 10
	"Wannian #0" = 10
	"Zongyan #0" = 10
	"Tingkui #0" = 10
	"Bangzuo #0" = 10
	"Ruxiu #0" = 10
	"Guochang #0" = 10
	"Huanchun #0" = 10
	"Xianming #0" = 10
	"Shengdou #0" = 10
	"Zhaochen #0" = 10
	"Shimei #0" = 10
	"Guoxi #0" = 10
	"Shangzhen #0" = 10
	"Daoxing #0" = 10
	"Tingbiao #0" = 10
	"Yunrang #0" = 10
	"Wan #0" = 10
	"Jin #0" = 10
	"Ding #0" = 10
	"Wuchang #0" = 10
	"Chengzhang #0" = 10
	"Jiefu #0" = 10
	"Wenyong #0" = 10
	"Shiming #0" = 10
	"Chonghua #0" = 10
	"Sanfeng #0" = 10
	"Wanyan #0" = 10
	"Dayong #0" = 10
	"Zhongwen #0" = 10
	"Kexue #0" = 10
	"Yuanjie #0" = 10
	"Rucai #0" = 10
	"Kexi #0" = 10
	"Zhongming #0" = 10
	"Jinxing #0" = 10
	"Yan #0" = 10
	"Yingxiang #0" = 10
	"Zongmin #0" = 10
	"Kai #0" = 10
	
	"Heying #0" = -1
	"Chunmei #0" = -1
	"Tianhui #0" = -1
	"Kon #0" = -1
	"Mao #0" = -1
	"Yuying #0" = -1
	"Yuantong #0" = -1
	"Yanxiang #0" = -1
	"Xiurong #0" = -1
	"Shouying #0" = -1
	"Fuyuan #0" = -1
	"Luzhen #0" = -1
	"Ruirong #0" = -1
	"Suzhen #0" = -1
	"Xiao #0" = -1
	"Xiaoying #0" = -1
	"Xiaoyuan #0" = -1
	"Xiaoji #0" = -1
	"Xiaolou #0" = -1
	"Fen #0" = -1
	"Jian #0" = -1
	"Wen #0" = -1
	"Hejing #0" = -1
	"Hejia #0" = -1
	"Hexiao #0" = -1
	"Zhuangjing #0" = -1
	"Akura #0" = -1
	"Asuna #0" = -1
	"Bemune #0" = -1
	"Ciko #0" = -1
	"Dekaede #0" = -1
	"Detumi #0" = -1
	"Dezhie #0" = -1
	"Dezouko #0" = -1
	"Ekako #0" = -1
	"Fanchegli #0" = -1
	"Glozuki #0" = -1
	"Jeru #0" = -1
	"Jetaka #0" = -1
	"Jibisaki #0" = -1
	"Kiariko #0" = -1
	"Kiliko #0" = -1
	"Kimpoharu #0" = -1
	"Kitomi #0" = -1
	"Minxuo #0" = -1
	"Moposhi #0" = -1
	"Nengumi #0" = -1
	"Nin #0" = -1
	"Oikemi #0" = -1
	"Palchiko #0" = -1
	"Pedgoku #0" = -1
	"Qao #0" = -1
	"Qeskane #0" = -1
	"Ran #0" = -1
	"Ranako #0" = -1
	"Sakara #0" = -1
	"Seneko #0" = -1
	"Shaltiko #0" = -1
	"Silaziko #0" = -1
	"Tamoko #0" = -1
	"Taraka #0" = -1
	"Umayano #0" = -1
	"Vakiko #0" = -1
	"Vezuko #0" = -1
	"Voxaoru #0" = -1
	"Vronoki #0" = -1
	"Yanon #0" = -1
	"Yokochu #0" = -1
	"Yui #0" = -1
	"Yzviku #0" = -1
	"Zoyuko #0" = -1
	"Amro #0" = -1
	"Anokhi #0" = -1
	"Anup #0" = -1
	"Begum #0" = -1
	"Bhani #0" = -1
	"Dani #0" = -1
	"Gujri #0" = -1
	"Jodhabai #0" = -1
	"Khivi #0" = -1
	"Kishan #0" = -1
	"Lachmi #0" = -1
	"Nanaki #0" = -1
	"Nihal #0" = -1
	"Ramo #0" = -1
	"Sabhirai #0" = -1
	"Sahib #0" = -1
	"Sulakhni #0" = -1
	"Sundari #0" = -1
	"Tripta #0" = -1
	"Chand Kaur #0" = -1
	"Ratan Kaur #0" = -1
	"Kanwal Kaur #0" = -1
	"Datar Kaur #0" = -1
	"Nand Kaur #0" = -1
	"Mahtab #0" = -1
	
}

leader_names = {
	
	#Raheni
	"of Rahen" "of the Sobhagand" "of the Rajnadhid" "of the Ghankedhen" "of the Shandibad" "of the Shamadhan" "of the Khedarid" "of the Kamtarhid"
	"Kohkkar" "Gakhkhar" "Phulkian" "Bhullara" "Dhaliwala" "Sandhawalia" "Ahluwalia" "Langa" 
	"Mirrani" "Abbasi" "Janda" "Jhuti" "Kahlon" "Banu Sama"
	"'the Tall'" "'the Younger'" "'the Clever'" "'the Vigilant'" "'the Stern'" "'the Mighty'" "'the Kind'" "'the Able'" "'the Good'" "'the Fat'" "'the Slaver'" "'the Magnanimous'" "'the Magnificent'" "'the White'"

	#Hobgoblin
	"of the Red Boars" "of the Boar Charge" "of the Boar-Tusks" "of the Boar Heart" "of the Brown Boars" "of the Green Boars" "of the Northern Boars" "of the Cave Boars"
	"of the Sand Wolves" "of the Wolf Fangs" "of the Wolf Heart" "of the Wolf Head" "of the Thunder Wolves" "of the Green Wolves" "of the Gray Wolves" "of the Western Wolves"
	"of the Lion-Claws" "of the Lion Maw" "of the Lion Heart" "of the Brown Lions" "of the Lion Might" "of the Blood Lions" "of the Yellow Lions" "of the Eastern Lions"

	#Yan
	Wong Lei Zoeng Lau Can Joeng Zyu Ng Zau Ceoi Syun Maa Wu Gwok Ho Lam Mok
	Gou Lo Zeng Loeng Ze Sung Tong Heoi Dang Hon Fung Cou Pang Zang Siu Tin
	Dung Pun Jyun Coi Jyu Dou Jip Cin Ngai Sou Leoi Ding Teng Jam Lou Sam
	Zung Goeng Luk Taam Faan Sek Gam Wai Gaa Haa Fu Fong Hung Baak Maang San
	Ceon Jau Hau Dong Sit Jim Lung Dyun Mou Tou Yik Kiu Zong Wan Pung Jyuk

}

ship_names = {
	#Raheni
	Meial Mafal Arkarot Teek Dafdaar Lakhdee Hekur Ballza Barsh Cerir
	Nil Nour Keeya Tarra Nava Risaa Aaro Hiem Yash Raj
	Rashi Arang Anvo Chatanya Khanta Hearsha Hearshad Gohar Kali Nali
	Sashi Oumet Oudiyan Andita Laranya Herida Aya Alka Amvar Anjee
	Dafya Dirsna Esana Ando Serana Nursana Rashand Salee Tarea Aavan
	Darmini Guinder Ishvin Viray Urivi Gatig Himmat Rajsifat Jasmi Natiya
	Vendika Arush Aynav Bhouvin Keena Laksha Furab Prosam Pritam Sarvan
	Rajsadra Rajkhadee Rajparvat Ihaparvat Ihasadra Ihakhadee Mazbutparvat Mazbutsadra Mazbuttkhadee Mazbupattan
	Sramayadillee Harimasha Harimdillee Rahensina Rahendillee Rahenraj Harimraj Tarraj Utharaj
	Daksindillee Daksinchanda Daksinraja Pavdirshad Pavdirdillee Pavdiraj Pavdirchanda Pavdirshab Vafadarshab Vafadaraat
	Ralapritam Pilpritam
	"Goshar Ashanbit"
	"Sidar Vadra"

	#Hobgoblin
	Akura Artuko
	Bochiro Bemune
	Carg Ciko
	Deaku Dezouko
	Ekako Elgoji
	Jadahiro Jeru Jetaka Jonozuke
	Kaburo Kiliko Koburo Krenzo
	Moguwon Mekuwon Mekuro
	Qao Qirota
	Sakara Seneko
	Tamoko Taraka
	Vakiko Vitiro Vragori
	Yanon Yuto

	#Yan
	Beiji Tianshu Sifu Gouchen Tianzhu Zhushi Tianqiang Xuange
	Taizun Beidou Santai Tianji Wenchang Qizhenjiangjun Tenshe
	Liaoning Beiluoshimen Yujing Hongshi 
	Qinglong Baihu Zhuque Xuanwu Zhaowu Yong'an Nan'an Longhai Fu'an Fuding Jinchang
	Qingyuan Xining Xingyi Wu'an Xianning Ruichang Xinghua
	Zhaoyuan Xingping Yongji Xiaoyi Yongkang Rende Anding
	Yanping Dingyuan Zhenyuan Jingyuan Laiyuan Zhiyuan
	Jiyuan Pingyuan Chaoyong Yangwei Guangjia Guangyi Guangbing
	Zhendong Zhennan Zhenxi Zhenbei Zhenzhong Zhenbian
	Weiyuan Kangji Minjie Zhenhai "Tai'an" Caojiang Meiyun
	Fulong Jieshun Zhenwu Jintai Yitong Guangshou Baiyue
	Sanwei Desheng 
}

army_names = {
	"Shaman Army" "Army of $PROVINCE$" "Last Stand of $PROVINCE$"
}

fleet_names = {
	"Shaman Fleet" "Tiger Fleet" "Elephant Fleet" "Dragon Fleet" "Hope of $PROVINCE$"
}